Division,WeightClassKg,Place,Name,Team,BodyweightKg,Best3SquatKg,Best3BenchKg,Best3DeadliftKg,TotalKg,Equipment,Event,Sex,BirthDate
Girls,44.23,1,Journee Mekdara,Dumas,42.96,108.86,52.16,129.27,290.3,Unlimited,SBD,F,
Girls,44.23,2,Angelica Estrada,San Angelo Lake View,42.86,97.52,61.23,90.72,249.48,Unlimited,SBD,F,
Girls,44.23,3,Avralynn Sosa,San Angelo Lake View,44.23,83.91,36.29,79.38,199.58,Unlimited,SBD,F,
Girls,44.23,4,Andrea Ramirez,Dumas,42.37,74.84,38.56,79.38,192.78,Unlimited,SBD,F,
Girls,47.85,1,Hannah Hernandez,Dumas,46.81,161.03,83.91,138.35,383.29,Unlimited,SBD,F,
Girls,47.85,2,Marley Winchester,Canyon Randall,46.45,88.45,47.63,88.45,224.53,Unlimited,SBD,F,
Girls,47.85,3,Micah Shyrock,Andrews,47.45,70.31,38.56,97.52,206.38,Unlimited,SBD,F,
Girls,47.85,4,Jasmine Rangel,San Angelo Lake View,47.76,68.04,36.29,88.45,192.78,Unlimited,SBD,F,
Girls,47.85,DQ,Sakae Machado,Dumas,45.36,108.86,,,,Unlimited,SBD,F,
Girls,51.94,1,Jaelynn Lopez,Dumas,50.08,122.47,54.43,117.93,294.84,Unlimited,SBD,F,
Girls,51.94,2,Monse Holguin,Big Spring,51.12,108.86,52.16,113.4,274.42,Unlimited,SBD,F,
Girls,51.94,3,Andrea Lopez,San Angelo Lake View,51.39,97.52,49.9,117.93,265.35,Unlimited,SBD,F,
Girls,51.94,4,Layla Ortiz,Big Spring,50.94,77.11,49.9,113.4,240.4,Unlimited,SBD,F,
Girls,51.94,5,Destinie Castro,San Angelo Lake View,51.3,86.18,45.36,95.25,226.8,Unlimited,SBD,F,
Girls,51.94,6,Jailynn Chabarria,San Angelo Lake View,49.62,68.04,38.56,86.18,192.78,Unlimited,SBD,F,
Girls,51.94,7,Miranda Aguirre,San Angelo Lake View,48.85,58.97,36.29,72.57,167.83,Unlimited,SBD,F,
Girls,51.94,8,Aliyah Galvan,San Angelo Lake View,48.4,52.16,34.02,70.31,156.49,Unlimited,SBD,F,
Girls,56.02,1,Krista Rodriguez,Dumas,52.8,136.08,61.23,124.74,322.05,Unlimited,SBD,F,
Girls,56.02,2,Yvanka Martinez,Big Spring,56.02,111.13,56.7,122.47,290.3,Unlimited,SBD,F,
Girls,56.02,3,Simealai Tino,Big Spring,55.02,113.4,61.23,113.4,288.03,Unlimited,SBD,F,
Girls,56.02,4,Danica Bogart,Dumas,55.75,113.4,47.63,111.13,272.16,Unlimited,SBD,F,
Girls,56.02,5,Esmee Flores,San Angelo Lake View,55.66,99.79,56.7,99.79,256.28,Unlimited,SBD,F,
Girls,56.02,6,Adysson Townsend,Canyon Randall,55.43,92.99,54.43,90.72,238.14,Unlimited,SBD,F,
Girls,56.02,7,Neela Driver,Andrews,56.02,86.18,47.63,95.25,229.06,Unlimited,SBD,F,
Girls,56.02,8,Alondra Garcia,Canyon Randall,55.66,86.18,43.09,83.91,213.19,Unlimited,SBD,F,
Girls,60.1,1,Adi Farni,Dumas,57.56,167.83,86.18,145.15,399.16,Unlimited,SBD,F,
Girls,60.1,2,Hayvene Mares,Dumas,57.79,131.54,61.23,131.54,324.32,Unlimited,SBD,F,
Girls,60.1,3,Aaliyah Chairez,Dumas,58.38,124.74,56.7,127.01,308.44,Unlimited,SBD,F,
Girls,60.1,4,Ava Barnes,San Angelo Lake View,57.11,104.33,70.31,104.33,278.96,Unlimited,SBD,F,
Girls,60.1,5,Juanita Cuellar,Big Spring,59.33,81.65,47.63,117.93,247.21,Unlimited,SBD,F,
Girls,60.1,6,Heaven Alambar,San Angelo Lake View,58.33,88.45,52.16,99.79,240.4,Unlimited,SBD,F,
Girls,67.36,1,Brisa Adame,Dumas,64.23,172.37,79.38,151.95,403.7,Unlimited,SBD,F,
Girls,67.36,2,Elena Urquidez,Andrews,64.36,127.01,65.77,138.35,331.12,Unlimited,SBD,F,
Girls,67.36,3,Landri Holcomb,Canyon Randall,66.36,127.01,70.31,131.54,328.85,Unlimited,SBD,F,
Girls,67.36,4,Ashlynn Reyna,Canyon,67.13,124.74,74.84,127.01,326.59,Unlimited,SBD,F,
Girls,67.36,5,Amaiya Hernandez,Big Spring,63.59,117.93,45.36,106.59,269.89,Unlimited,SBD,F,
Girls,67.36,6,Dalila Davis,San Angelo Lake View,63.73,104.33,65.77,97.52,267.62,Unlimited,SBD,F,
Girls,67.36,7,Parker Weaver,Canyon Randall,66.18,102.06,58.97,106.59,267.62,Unlimited,SBD,F,
Girls,67.36,8,Evangeline Griffin,Canyon Randall,66.22,102.06,61.23,102.06,265.35,Unlimited,SBD,F,
Girls,67.36,9,Jozlin Emfinger,San Angelo Lake View,62.23,95.25,56.7,99.79,251.74,Unlimited,SBD,F,
Girls,67.36,10,Katee Taylor,Canyon Randall,63.46,99.79,49.9,90.72,240.4,Unlimited,SBD,F,
Girls,67.36,DQ,Brylee Jesko,Canyon,66.32,,,,,Unlimited,SBD,F,
Girls,67.36,DQ,Maribel Rivera,Dumas,66.32,,,,,Unlimited,SBD,F,
Girls,75.07,1,Idalie Lopez,Dumas,73.48,163.29,72.57,127.01,362.87,Unlimited,SBD,F,
Girls,75.07,2,Libby Weatherford,Dumas,73.26,133.81,83.91,136.08,353.8,Unlimited,SBD,F,
Girls,75.07,3,Candie Rubio,Dumas,73.21,136.08,68.04,140.61,344.73,Unlimited,SBD,F,
Girls,75.07,4,Kianna Olivas,Andrews,73.39,124.74,65.77,120.2,310.71,Unlimited,SBD,F,
Girls,75.07,5,Tara Porter,Big Spring,74.48,111.13,65.77,122.47,299.37,Unlimited,SBD,F,
Girls,75.07,6,Brenna Edwards,Canyon,72.03,122.47,61.23,108.86,292.57,Unlimited,SBD,F,
Girls,75.07,7,Allison Hillhouse,Big Spring,73.98,108.86,54.43,124.74,288.03,Unlimited,SBD,F,
Girls,75.07,8,Zoe Cigarroa,Big Spring,72.08,111.13,65.77,104.33,281.23,Unlimited,SBD,F,
Girls,75.07,9,Hazel Rangel,Big Spring,70.76,99.79,65.77,111.13,276.69,Unlimited,SBD,F,
Girls,75.07,10,Lyleanna Chavarria,Andrews,68.08,90.72,47.63,86.18,224.53,Unlimited,SBD,F,
Girls,75.07,DQ,Deondra Washington,Lubbock Estacado,69.17,,,,,Unlimited,SBD,F,
Girls,75.07,DQ,Tessa Orozco,San Angelo Lake View,71.17,77.11,,,,Unlimited,SBD,F,
Girls,82.33,1,Alandra Juarez,Big Spring,78.29,129.27,74.84,140.61,344.73,Unlimited,SBD,F,
Girls,82.33,2,Angelina Paez,San Angelo Lake View,79.24,136.08,86.18,122.47,344.73,Unlimited,SBD,F,
Girls,82.33,3,Alexis Michel,Canyon Randall,79.2,120.2,74.84,117.93,312.98,Unlimited,SBD,F,
Girls,82.33,4,Lilianna Ybarra,Canyon Randall,78.02,117.93,61.23,113.4,292.57,Unlimited,SBD,F,
Girls,82.33,5,Angel Evans,Big Spring,75.11,117.93,54.43,108.86,281.23,Unlimited,SBD,F,
Girls,82.33,6,Catherine Morton,Canyon Randall,82.1,92.99,45.36,106.59,244.94,Unlimited,SBD,F,
Girls,82.33,7,Josie Veitenheimer,Canyon Randall,78.38,70.31,63.5,92.99,226.8,Unlimited,SBD,F,
Girls,82.33,8,Alizaye Compean,Lubbock Estacado,78.15,92.99,45.36,86.18,224.53,Unlimited,SBD,F,
Girls,82.33,DQ,Amber Bertoni,Canyon,82.33,,,,,Unlimited,SBD,F,
Girls,90.04,1,Izabella Montoya,Andrews,87,156.49,117.93,161.03,435.45,Unlimited,SBD,F,
Girls,90.04,2,Yazmin Heredia,Andrews,87.41,174.63,99.79,154.22,428.64,Unlimited,SBD,F,
Girls,90.04,3,Dayanara Vasquez,Andrews,85.91,142.88,74.84,136.08,353.8,Unlimited,SBD,F,
Girls,90.04,4,Camila Lopez,Dumas,87.91,138.35,77.11,131.54,347,Unlimited,SBD,F,
Girls,90.04,5,JoJo Gonzalez,Big Spring,88.18,127.01,65.77,136.08,328.85,Unlimited,SBD,F,
Girls,90.04,6,Jaycee Mata,Canyon Randall,86.14,124.74,70.31,124.74,319.78,Unlimited,SBD,F,
Girls,90.04,7,Cloe Viasana,Big Spring,84.28,124.74,63.5,127.01,315.25,Unlimited,SBD,F,
Girls,90.04,8,Essence Reynolds,Big Spring,89.99,106.59,70.31,136.08,312.98,Unlimited,SBD,F,
Girls,90.04,9,Rilee Gonzales,Big Spring,84.96,122.47,70.31,111.13,303.91,Unlimited,SBD,F,
Girls,90.04,10,Khloe Martinez,Andrews,84.28,124.74,49.9,113.4,288.03,Unlimited,SBD,F,
Girls,90.04,11,Berkley Hamner,Canyon Randall,85.96,88.45,58.97,104.33,251.74,Unlimited,SBD,F,
Girls,100.02,1,Rebecca Rodriguez,Big Spring,98.88,183.7,90.72,183.7,458.13,Unlimited,SBD,F,
Girls,100.02,2,Hayley Vecchio,Dumas,93.85,156.49,92.99,147.42,396.89,Unlimited,SBD,F,
Girls,100.02,3,Yulissa Vasquez,Canyon,91.53,163.29,90.72,140.61,394.63,Unlimited,SBD,F,
Girls,100.02,4,Nevaeh Galvan,Dumas,91.99,149.69,88.45,140.61,378.75,Unlimited,SBD,F,
Girls,100.02,5,Destiny Hodnett,Big Spring,93.39,145.15,77.11,147.42,369.68,Unlimited,SBD,F,
Girls,100.02,6,Alliana Chavarria,Big Spring,93.85,133.81,68.04,117.93,319.78,Unlimited,SBD,F,
Girls,100.02,7,Joanna Cerda,San Angelo Lake View,93.85,122.47,65.77,117.93,306.17,Unlimited,SBD,F,
Girls,100.02,8,Amaya Colquitt,San Angelo Lake View,90.81,124.74,56.7,115.67,297.1,Unlimited,SBD,F,
Girls,100.02,9,Keanna Lumbrera,San Angelo Lake View,90.31,111.13,63.5,113.4,288.03,Unlimited,SBD,F,
Girls,100.02,10,Nina Garcia,Andrews,90.45,111.13,56.7,120.2,288.03,Unlimited,SBD,F,
Girls,100.02,11,Hannah Ketterlin,Canyon Randall,94.71,92.99,47.63,108.86,249.48,Unlimited,SBD,F,
Girls,110,1,Lily Bell,Andrews,109.04,179.17,104.33,124.74,408.23,Unlimited,SBD,F,
Girls,110,2,Khylee Whalen,Dumas,106.87,170.1,81.65,142.88,394.63,Unlimited,SBD,F,
Girls,110,3,Josefina Panjoj,Dumas,105.14,156.49,79.38,133.81,369.68,Unlimited,SBD,F,
Girls,110,4,Adrian Bankston,San Angelo Lake View,100.29,136.08,92.99,115.67,344.73,Unlimited,SBD,F,
Girls,110,5,Cloey Hughes,Andrews,108.05,124.74,79.38,97.52,301.64,Unlimited,SBD,F,
Girls,110+,1,Quasett Woodruff,Big Spring,122.52,240.4,104.33,183.7,528.44,Unlimited,SBD,F,
Girls,110+,2,Violet Calderon,Big Spring,123.83,226.8,95.25,165.56,487.61,Unlimited,SBD,F,
Girls,110+,3,Janiya Jefferson,San Angelo Lake View,139.62,174.63,92.99,181.44,449.06,Unlimited,SBD,F,
Girls,110+,4,Valerie Gonzalez,Dumas,116.94,170.1,90.72,158.76,419.57,Unlimited,SBD,F,
Girls,110+,5,Kathleen Curry,Andrews,128.05,161.03,102.06,115.67,378.75,Unlimited,SBD,F,
Girls,110+,DQ,Analucia Arguello,Andrews,128.05,,,,,Unlimited,SBD,F,
Girls,110+,DQ,Neveah Montes,Dumas,114.35,,,,,Unlimited,SBD,F,
Girls,110+,DQ,Elaina Hernandez,Dumas,122.83,,,,,Unlimited,SBD,F,
