Place,Name,Sex,BirthDate,Country,Equipment,Division,BodyweightKg,WeightClassKg,Squat1Kg,Squat2Kg,Squat3Kg,Best3SquatKg,Bench1Kg,Bench2Kg,Bench3Kg,Best3BenchKg,Deadlift1Kg,Deadlift2Kg,Deadlift3Kg,Best3DeadliftKg,TotalKg,Event,Tested
1,Melica Fabroa,F,2000-06-10,Australia,Sleeves,J20-23,54.9,56,112.5,122.5,127.5,127.5,50,-57.5,60,60,130,145,155,155,342.5,SBD,Yes
2,Ella Green,F,2002-06-28,Australia,Sleeves,J20-23,55.2,56,100,107.5,112.5,112.5,67.5,72.5,75,75,110,120,-130,120,307.5,SBD,Yes
1,Alli Lazarevic,F,1983-10-27,Australia,Sleeves,M40-49,47,48,87.5,90,-92.5,90,45,-47.5,-47.5,45,120,127.5,130,130,265,SBD,Yes
1,Pam Li,F,1970-05-03,Australia,Sleeves,M50-59,54.3,56,-105,105,-110,105,52.5,57.5,-60.5,57.5,135,140,-145,140,302.5,SBD,Yes
1,Onica Mhaka,F,1995-09-17,Australia,Sleeves,Open,52,52,-122.5,125,130.5,130.5,60,-65,-65,60,140,-147.5,152.5,152.5,343,SBD,Yes
2,Joelle Boribon,F,1994-08-15,Australia,Sleeves,Open,50.8,52,95,100,-105,100,52.5,57.5,60,60,125,140,-145,140,300,SBD,Yes
1,Amy Campbell,F,1987-06-22,Australia,Sleeves,Open,54.3,56,-120,-122.5,122.5,122.5,60,62.5,-65,62.5,150,163,-165.5,163,348,SBD,Yes
2,Melica Fabroa,F,2000-06-10,Australia,Sleeves,Open,54.9,56,112.5,122.5,127.5,127.5,50,-57.5,60,60,130,145,155,155,342.5,SBD,Yes
3,Hollie McConkey,F,1995-02-09,Australia,Sleeves,Open,54.7,56,110,115,-120,115,55,60,62.5,62.5,135,145,150,150,327.5,SBD,Yes
4,Sophia Long,F,2001-03-29,Australia,Sleeves,Open,55.6,56,87.5,97.5,-102.5,97.5,60,65,67.5,67.5,140,153.5,-160.5,153.5,318.5,SBD,Yes
5,Ella Green,F,2002-06-28,Australia,Sleeves,Open,55.2,56,100,107.5,112.5,112.5,67.5,72.5,75,75,110,120,-130,120,307.5,SBD,Yes
6,Pam Li,F,1970-05-03,Australia,Sleeves,Open,54.3,56,-105,105,-110,105,52.5,57.5,-60.5,57.5,135,140,-145,140,302.5,SBD,Yes
1,Cliona Colgan,F,2007-02-08,Australia,Sleeves,T16-19,66.5,67.5,102.5,-115,115,115,60,65,-70,65,127.5,140,152.5,152.5,332.5,SBD,Yes
1,Ishbel Graham,F,2001-07-11,Australia,Wraps,J20-23,55.5,56,150,160,167.5,167.5,77.5,-82.5,82.5,82.5,150,160,-170,160,410,SBD,Yes
1,Kristy Wells,F,1983-03-30,Australia,Wraps,M40-49,51.8,52,-125,125,-135,125,62.5,65,-67.5,65,135,-145,145,145,335,SBD,Yes
1,Vicky Pollen,F,1976-10-04,Australia,Wraps,M40-49,56.3,60,125,135,-140,135,60,-65,-65,60,150,-165,-170,150,345,SBD,Yes
1,Samantha Johnson-Blacow,F,1980-04-10,Australia,Wraps,M40-49,67.2,67.5,130,140,147.5,147.5,62.5,70,75,75,155,-165,165,165,387.5,SBD,Yes
1,Janine Blake,F,1956-12-10,Australia,Wraps,M60-69,54.1,56,92.5,100,106,106,50,55,-57.5,55,125,135,-141.5,135,296,SBD,Yes
1,Ishbel Graham,F,2001-07-11,Australia,Wraps,Open,55.5,56,150,160,167.5,167.5,77.5,-82.5,82.5,82.5,150,160,-170,160,410,SBD,Yes
2,Mel Coller,F,1990-11-22,Australia,Wraps,Open,54.8,56,127.5,137.5,145,145,67.5,70,72.5,72.5,140,150,160,160,377.5,SBD,Yes
3,Lucy Hisco,F,1999-05-15,Australia,Wraps,Open,52.6,56,122.5,-127.5,127.5,127.5,70,-75,75,75,125,135,-145,135,337.5,SBD,Yes
4,Chloe Harward,F,1998-11-11,Australia,Wraps,Open,55.9,56,-115,127.5,-132.5,127.5,65,70,,70,125,140,-150,140,337.5,SBD,Yes
5,Janine Blake,F,1956-12-10,Australia,Wraps,Open,54.1,56,92.5,100,106,106,50,55,-57.5,55,125,135,-141.5,135,296,SBD,Yes
1,Vicky Pollen,F,1976-10-04,Australia,Wraps,Open,56.3,60,125,135,-140,135,60,-65,-65,60,150,-165,-170,150,345,SBD,Yes
1,Taneal Perry,F,1996-09-24,Australia,Wraps,Open,67,67.5,140,-150,155,155,62.5,-67.5,-67.5,62.5,160,170,175,175,392.5,SBD,Yes
2,Shanice Hudec,F,1994-02-18,Australia,Wraps,Open,66.4,67.5,142.5,152.5,-160,152.5,75,-80,-80,75,145,155,160,160,387.5,SBD,Yes
3,Laura McLennan,F,1998-06-22,Australia,Wraps,Open,64.8,67.5,130,137.5,-142.5,137.5,70,75,-77.5,75,140,150,-155,150,362.5,SBD,Yes
4,Alice Ndayishimiye,F,1998-02-05,Australia,Sleeves,Open,67.3,67.5,125,135,-142.5,135,60,65,67.5,67.5,145,160,-167.5,160,362.5,SBD,Yes
5,Taylah Whitaker,F,1998-02-20,Australia,Wraps,Open,66.7,67.5,125,-135,-135,125,65,72.5,-77.5,72.5,150,160,-167.5,160,357.5,SBD,Yes
1,Riley Quire,M,2003-04-07,Australia,Sleeves,J20-23,81.3,82.5,215,222.5,227.5,227.5,130,135,137.5,137.5,240,250,-252.5,250,615,SBD,Yes
2,Oscar O'Neill,M,2003-01-15,Australia,Sleeves,J20-23,82.1,82.5,-200,200,220,220,150,155,-160,155,-230,230,,230,605,SBD,Yes
3,Allan Jin,M,2003-06-14,Australia,Sleeves,J20-23,78.2,82.5,180,195,-205,195,115,125,130,130,230,255,265,265,590,SBD,Yes
4,Roman Sadiq,M,2002-04-05,Australia,Sleeves,J20-23,81.1,82.5,175,195,-200,195,97.5,105,112.5,112.5,215,225,-232.5,225,532.5,SBD,Yes
1,Samuel Russell,M,2004-01-22,Australia,Sleeves,J20-23,88.9,90,232.5,247.5,260,260,150,162.5,-170,162.5,242.5,262.5,275,275,697.5,SBD,Yes
2,Connaigh Whitaker,M,2001-04-10,Australia,Sleeves,J20-23,87.1,90,220,230,245,245,160,170,-180,170,280,-300,-300,280,695,SBD,Yes
3,Kivah Franze,M,2003-12-28,Australia,Sleeves,J20-23,87.2,90,-230,240,-250,240,145,155,-162.5,155,270,280,290,290,685,SBD,Yes
4,Ryan Hughes #11,M,2002-07-18,Australia,Sleeves,J20-23,90,90,-210,210,225,225,160,167.5,-172.5,167.5,250,-270,-270,250,642.5,SBD,Yes
1,Peter Robertson,M,1972-01-15,Australia,Sleeves,M50-59,81.2,82.5,-170,170,,170,120,132.5,-142.5,132.5,200,217.5,222.5,222.5,525,SBD,Yes
2,Paul Quan,M,1965-05-23,Australia,Sleeves,M50-59,82,82.5,155,-160,160,160,125,130,-135,130,170,177.5,182.5,182.5,472.5,SBD,Yes
1,Frederick Guirguis,M,1958-11-01,Australia,Sleeves,M60-69,81.2,82.5,110,117.5,-120,117.5,-90,90,97.5,97.5,130,140,150,150,365,SBD,Yes
1,Zac Laird,M,1996-11-27,Australia,Sleeves,Open,82.5,82.5,237.5,-247.5,252.5,252.5,135,140,145,145,260,275,-287.5,275,672.5,SBD,Yes
2,Harrison Cuffe,M,1999-10-09,Australia,Sleeves,Open,81,82.5,205,217.5,227.5,227.5,135,140,145,145,245,265,280,280,652.5,SBD,Yes
3,Tehilla Akibwib,M,2000-03-18,Australia,Sleeves,Open,77.2,82.5,225,232.5,-240,232.5,110,-120,120,120,235,250,260,260,612.5,SBD,Yes
4,Brayden Le,M,,Australia,Sleeves,Open,81.3,82.5,197.5,207.5,220,220,125,130,137.5,137.5,220,237.5,250,250,607.5,SBD,Yes
5,Tyler Hamilton,M,1995-04-09,Australia,Sleeves,Open,80.2,82.5,205,215,220,220,-135,137.5,-147.5,137.5,235,242.5,-247.5,242.5,600,SBD,Yes
6,Meric Woodbridge,M,,Australia,Sleeves,Open,80.2,82.5,185,192.5,200,200,120,127.5,-132.5,127.5,-220,220,245,245,572.5,SBD,Yes
1,Samuel Russell,M,2004-01-22,Australia,Sleeves,Open,88.9,90,232.5,247.5,260,260,150,162.5,-170,162.5,242.5,262.5,275,275,697.5,SBD,Yes
2,Connaigh Whitaker,M,2001-04-10,Australia,Sleeves,Open,87.1,90,220,230,245,245,160,170,-180,170,280,-300,-300,280,695,SBD,Yes
3,Kivah Franze,M,2003-12-28,Australia,Sleeves,Open,87.2,90,-230,240,-250,240,145,155,-162.5,155,270,280,290,290,685,SBD,Yes
4,Harry Perrin,M,1995-01-09,Australia,Sleeves,Open,89.9,90,-250,250,260,260,155,162.5,-167.5,162.5,235,250,-265,250,672.5,SBD,Yes
5,Rohan Rampton,M,1997-09-05,Australia,Sleeves,Open,83.2,90,200,220,240,240,132.5,140,145,145,235,255,275,275,660,SBD,Yes
6,Joseph Lu #1,M,1993-08-01,Australia,Sleeves,Open,86.4,90,210,225,235,235,135,140,-145,140,260,280,-282.5,280,655,SBD,Yes
7,Jordan Pirrone,M,1999-05-17,Australia,Sleeves,Open,86.8,90,222.5,235,245,245,135,145,-150,145,-250,265,-275,265,655,SBD,Yes
8,Derek Huynh,M,1998-12-26,Australia,Sleeves,Open,89.4,90,235,250,-262.5,250,132.5,140,145,145,230,250,-265,250,645,SBD,Yes
9,Ryan Hughes #11,M,2002-07-18,Australia,Sleeves,Open,90,90,-210,210,225,225,160,167.5,-172.5,167.5,250,-270,-270,250,642.5,SBD,Yes
10,Andrew Cherry,M,1989-09-02,Australia,Sleeves,Open,85.5,90,227.5,240,250,250,132.5,-137.5,-137.5,132.5,230,245,255,255,637.5,SBD,Yes
11,Travis Castagna,M,1990-10-28,Australia,Sleeves,Open,89.7,90,210,230,237.5,237.5,122.5,130,132.5,132.5,235,255,265,265,635,SBD,Yes
12,Anthony Denes,M,,Australia,Sleeves,Open,86,90,190,210,217.5,217.5,130,-140,140,140,260,275,-290,275,632.5,SBD,Yes
13,Nathan Buckle,M,2005-11-06,Australia,Sleeves,Open,84.1,90,-205,205,225,225,135,147.5,152.5,152.5,225,242.5,250,250,627.5,SBD,Yes
14,Jeremy Pearce,M,1998-02-26,Australia,Sleeves,Open,84.3,90,235,-245,-245,235,135,-140,-140,135,240,250,-257.5,250,620,SBD,Yes
15,Alexander Lara,M,2006-07-03,Australia,Sleeves,Open,89.4,90,220,227.5,232.5,232.5,125,132.5,137.5,137.5,230,245,-262.5,245,615,SBD,Yes
16,Leroy Sevillano,M,1997-01-14,Australia,Sleeves,Open,89,90,205,215,225,225,127.5,135,-140,135,240,-255,-255,240,600,SBD,Yes
17,Kai Jones,M,1999-10-06,Australia,Sleeves,Open,86.5,90,190,200,205,205,135,142.5,-145,142.5,225,235,-245,235,582.5,SBD,Yes
18,Byron Kitchener,M,1997-12-24,Australia,Sleeves,Open,87.3,90,200,215,222.5,222.5,130,-135,-135,130,230,-250,-250,230,582.5,SBD,Yes
19,Patrick Attenborough,M,2006-06-16,Australia,Sleeves,Open,88.1,90,-220,225,-230,225,130,135,-140,135,-220,220,-230,220,580,SBD,Yes
20,Leonard van Lille,M,2005-03-23,Australia,Sleeves,Open,89.8,90,205,215,-225,215,130,-135,-135,130,205,220,-230,220,565,SBD,Yes
21,Alex Gao,M,2007-05-11,Australia,Sleeves,Open,85.7,90,180,-190,,180,-120,120,-125,120,210,220,-225,220,520,SBD,Yes
1,Hayden Hopkinson,M,,Australia,Sleeves,Open,157.9,140+,315,335,350,350,147.5,157.5,165,165,240,-252.5,252.5,252.5,767.5,SBD,Yes
1,Tybias Horsfield,M,2006-03-30,Australia,Sleeves,T16-19,81.4,82.5,205,227.5,235,235,145,155,-160,155,225,240,-250,240,630,SBD,Yes
2,William Gwynne,M,2007-02-22,Australia,Sleeves,T16-19,81.7,82.5,180,190,205,205,100,110,115,115,200,215,225,225,545,SBD,Yes
3,Connor Bland,M,2005-09-06,Australia,Sleeves,T16-19,82,82.5,180,-187.5,187.5,187.5,100,105,-112.5,105,205,220,230,230,522.5,SBD,Yes
4,Levi Logan,M,2004-10-26,Australia,Sleeves,T16-19,80.6,82.5,170,-180,180,180,115,122.5,-127.5,122.5,215,-230,-230,215,517.5,SBD,Yes
5,Armillius Teimitsi,M,2006-02-15,Australia,Sleeves,T16-19,78.2,82.5,170,180,-185,180,100,110,112.5,112.5,190,200,-207.5,200,492.5,SBD,Yes
1,Nathan Buckle,M,2005-11-06,Australia,Sleeves,T16-19,84.1,90,-205,205,225,225,135,147.5,152.5,152.5,225,242.5,250,250,627.5,SBD,Yes
2,Alexander Lara,M,2006-07-03,Australia,Sleeves,T16-19,89.4,90,220,227.5,232.5,232.5,125,132.5,137.5,137.5,230,245,-262.5,245,615,SBD,Yes
3,Patrick Attenborough,M,2006-06-16,Australia,Sleeves,T16-19,88.1,90,-220,225,-230,225,130,135,-140,135,-220,220,-230,220,580,SBD,Yes
4,Leonard van Lille,M,2005-03-23,Australia,Sleeves,T16-19,89.8,90,205,215,-225,215,130,-135,-135,130,205,220,-230,220,565,SBD,Yes
5,Alex Gao,M,2007-05-11,Australia,Sleeves,T16-19,85.7,90,180,-190,,180,-120,120,-125,120,210,220,-225,220,520,SBD,Yes
1,Jacob Tapp,M,2000-10-08,Australia,Wraps,Open,79.2,82.5,250,-260,-265,250,145,155,-160,155,255,270,277.5,277.5,682.5,SBD,Yes
1,Tuvaru Toki,M,2000-03-30,Australia,Wraps,Open,87.3,90,250,265,-275,265,150,157.5,-165,157.5,245,260,270,270,692.5,SBD,Yes
2,Alexander Ng,M,1992-12-08,Australia,Wraps,Open,87.3,90,230,250,-257.5,250,140,155,-160,155,235,260,272.5,272.5,677.5,SBD,Yes
3,Yasar Chowdhury,M,1994-05-05,Australia,Wraps,Open,89.9,90,-225,-235,235,235,125,130,-132.5,130,250,257.5,265,265,630,SBD,Yes
4,Wil Schmidtke,M,2007-08-10,Australia,Wraps,Open,87.3,90,210,225,-230,225,115,-120,120,120,210,-222.5,222.5,222.5,567.5,SBD,Yes
1,Wil Schmidtke,M,2007-08-10,Australia,Wraps,T16-19,87.3,90,210,225,-230,225,115,-120,120,120,210,-222.5,222.5,222.5,567.5,SBD,Yes
1,Mark Roskell,M,1974-06-17,Australia,Single-ply,M50-59,89.8,90,210,225,235,235,-165,165,-172.5,165,-230,-230,240,240,640,SBD,Yes
1,Mark Roskell,M,1974-06-17,Australia,Single-ply,M50-59,89.8,90,,,,,-165,165,-172.5,165,,,,,165,B,Yes
1,Tehilla Akibwib,M,2000-03-18,Australia,Sleeves,Open,77.2,82.5,,,,,,,,,235,250,260,260,260,D,Yes
1,Chloe Caisley,F,2003-04-21,Australia,Sleeves,J20-23,67.3,67.5,150,160,165,165,90,95,100,100,160,170,-175,170,435,SBD,Yes
2,Camilla Aakhus,F,2001-08-16,Australia,Sleeves,J20-23,66.5,67.5,132.5,-137.5,142.5,142.5,70,75,-77.5,75,157.5,165,167.5,167.5,385,SBD,Yes
1,Rosie Hunt,F,1977-11-18,Australia,Sleeves,M40-49,56.6,60,110,117.5,121,121,60,65,68,68,140,152.5,160,160,349,SBD,Yes
1,Kimberley Prince,F,1976-11-16,Australia,Sleeves,M40-49,64.7,67.5,107.5,115,122.5,122.5,70,75,80,80,182.5,192.5,201,201,403.5,SBD,Yes
2,Chauntelle Rakebrandt,F,1984-06-01,Australia,Sleeves,M40-49,66.5,67.5,130,140,145.5,145.5,70,75,77.5,77.5,150,160,162.5,162.5,385.5,SBD,Yes
3,Christine McKee,F,1984-08-04,Australia,Sleeves,M40-49,66.3,67.5,110,120,125,125,55,57.5,-60,57.5,140,147.5,155,155,337.5,SBD,Yes
DQ,Marina Burley,F,1974-12-31,Australia,Sleeves,M40-49,66.3,67.5,-125,-125,-125,,-0,,,,,,,,,SBD,Yes
1,Sue Harris,F,1965-10-20,Australia,Sleeves,M50-59,66.1,67.5,105,-115,-115,105,55,-60.5,-60.5,55,115,122.5,-127.5,122.5,282.5,SBD,Yes
1,Di Weick,F,1956-05-20,Australia,Sleeves,M60-69,57.3,60,67.5,72.5,-75,72.5,42.5,45,-47.5,45,95,105.5,110.5,110.5,228,SBD,Yes
1,Michelle Hewlett,F,,Australia,Sleeves,Open,58.8,60,130,140,-147.5,140,82.5,-87.5,87.5,87.5,160,172.5,177.5,177.5,405,SBD,Yes
2,Maddy Davis,F,,Australia,Sleeves,Open,59,60,132.5,142.5,150,150,60,65,70,70,-132.5,140,150,150,370,SBD,Yes
3,Sarah Alaouie,F,1994-04-12,Australia,Sleeves,Open,60,60,120,130,135,135,55,60,,60,155,162.5,165,165,360,SBD,Yes
4,Sam Russo,F,1991-09-23,Australia,Sleeves,Open,58,60,120,127.5,130,130,60,65,-67.5,65,140,150,162.5,162.5,357.5,SBD,Yes
5,Rosie Hunt,F,1977-11-18,Australia,Sleeves,Open,56.6,60,110,117.5,121,121,60,65,68,68,140,152.5,160,160,349,SBD,Yes
6,Bianca Dal Ponte,F,1999-02-15,Australia,Sleeves,Open,59.5,60,100,-110,110,110,67.5,-72.5,72.5,72.5,140,152.5,-160,152.5,335,SBD,Yes
7,Madelyne Hunter,F,1993-08-30,Australia,Sleeves,Open,59.9,60,107.5,115,-120,115,62.5,67.5,70,70,130,140,-145,140,325,SBD,Yes
8,Anne-Elise Soriano,F,1990-01-20,Australia,Sleeves,Open,60,60,122.5,-130,130,130,60,-62.5,-62.5,60,125,135,-137.5,135,325,SBD,Yes
9,Di Weick,F,1956-05-20,Australia,Sleeves,Open,57.3,60,67.5,72.5,-75,72.5,42.5,45,-47.5,45,95,105.5,110.5,110.5,228,SBD,Yes
1,Chloe Caisley,F,2003-04-21,Australia,Sleeves,Open,67.3,67.5,150,160,165,165,90,95,100,100,160,170,-175,170,435,SBD,Yes
2,Casey King,F,1999-09-11,Australia,Sleeves,Open,66.5,67.5,-150,155,162.5,162.5,75,-80,80,80,165,180,185,185,427.5,SBD,Yes
3,Bec Giles,F,1986-11-01,Australia,Sleeves,Open,65.9,67.5,142.5,150,155,155,92.5,95,97.5,97.5,160,170,-180,170,422.5,SBD,Yes
4,Bethany Glenn,F,1998-03-12,Australia,Sleeves,Open,63.8,67.5,142.5,152.5,160,160,82.5,87.5,90,90,150,165,-172.5,165,415,SBD,Yes
5,Kimberley Prince,F,1976-11-16,Australia,Sleeves,Open,64.7,67.5,107.5,115,122.5,122.5,70,75,80,80,182.5,192.5,201,201,403.5,SBD,Yes
6,Kate Quinn #2,F,1989-05-01,Australia,Sleeves,Open,67.4,67.5,135,145,152.5,152.5,77.5,82.5,-85,82.5,147.5,157.5,165,165,400,SBD,Yes
7,Kertu Roose,F,1995-07-08,Australia,Sleeves,Open,67.5,67.5,145,155,-160,155,67.5,72.5,-77.5,72.5,155,165,172.5,172.5,400,SBD,Yes
8,Renee Coleman,F,1993-05-09,Australia,Sleeves,Open,67.4,67.5,122.5,132.5,137.5,137.5,80,85,-90,85,155,165,-170,165,387.5,SBD,Yes
9,Chauntelle Rakebrandt,F,1984-06-01,Australia,Sleeves,Open,66.5,67.5,130,140,145.5,145.5,70,75,77.5,77.5,150,160,162.5,162.5,385.5,SBD,Yes
10,Camilla Aakhus,F,2001-08-16,Australia,Sleeves,Open,66.5,67.5,132.5,-137.5,142.5,142.5,70,75,-77.5,75,157.5,165,167.5,167.5,385,SBD,Yes
11,Krystal Healy,F,1993-05-06,Australia,Sleeves,Open,67.1,67.5,-137.5,137.5,-142.5,137.5,75,80,-82.5,80,155,165,-175,165,382.5,SBD,Yes
12,Jo Pham,F,1998-11-18,Australia,Sleeves,Open,66.1,67.5,122.5,130,135,135,65,70,72.5,72.5,150,167.5,-182.5,167.5,375,SBD,Yes
13,Eleanor Gardner,F,1997-05-30,Australia,Sleeves,Open,67.2,67.5,110,117.5,-122.5,117.5,72.5,77.5,80,80,145,160,167.5,167.5,365,SBD,Yes
14,Trina Macmillan,F,1993-06-07,Australia,Sleeves,Open,66.1,67.5,117.5,122.5,-125,122.5,72.5,-77.5,80,80,145,155,-160,155,357.5,SBD,Yes
15,Ashleigh Johnstone,F,1988-11-25,Australia,Sleeves,Open,66.8,67.5,125,135,-137.5,135,65,70,72.5,72.5,135,145,150,150,357.5,SBD,Yes
16,Reem Abed-Rabbo,F,1985-09-07,Australia,Sleeves,Open,65.8,67.5,117.5,125,-130,125,60,65,67.5,67.5,150,-160,160,160,352.5,SBD,Yes
17,Grace Harding,F,2006-07-25,Australia,Sleeves,Open,65.8,67.5,105,112.5,-117.5,112.5,87.5,-92.5,92.5,92.5,140,-150,-150,140,345,SBD,Yes
18,Vanessa Sandoval,F,1997-06-18,Australia,Sleeves,Open,66.2,67.5,112.5,120,125,125,70,75,77.5,77.5,127.5,140,-147.5,140,342.5,SBD,Yes
19,Christine McKee,F,1984-08-04,Australia,Sleeves,Open,66.3,67.5,110,120,125,125,55,57.5,-60,57.5,140,147.5,155,155,337.5,SBD,Yes
20,Sue Harris,F,1965-10-20,Australia,Sleeves,Open,66.1,67.5,105,-115,-115,105,55,-60.5,-60.5,55,115,122.5,-127.5,122.5,282.5,SBD,Yes
DQ,Marina Burley,F,1974-12-31,Australia,Sleeves,Open,66.3,67.5,-125,-125,-125,,-0,,,,,,,,,SBD,Yes
1,Karly Rosenbrock,F,2000-05-03,Australia,Sleeves,Open,72.9,75,135,142.5,150,150,70,75,-80,75,165,175,182.5,182.5,407.5,SBD,Yes
1,Grace Harding,F,2006-07-25,Australia,Sleeves,T16-19,65.8,67.5,105,112.5,-117.5,112.5,87.5,-92.5,92.5,92.5,140,-150,-150,140,345,SBD,Yes
1,Ebony Shand,F,1996-12-10,Australia,Wraps,Open,57.7,60,150,160,-170,160,107.5,112.5,-117.5,112.5,160,170,-180,170,442.5,SBD,Yes
2,Ashleigh Perera,F,1999-03-29,Australia,Wraps,Open,59.9,60,142.5,-150,-150,142.5,67.5,-72.5,72.5,72.5,142.5,152.5,160,160,375,SBD,Yes
3,Tylah Baumgarten,F,1997-12-30,Australia,Wraps,Open,59.8,60,132.5,-140,-140,132.5,67.5,72.5,75,75,-145,152.5,-165,152.5,360,SBD,Yes
1,Burt-Raynold Samson,M,2003-01-16,Australia,Sleeves,J20-23,58,60,160,170,180,180,80,90,-95,90,150,170,-182.5,170,440,SBD,Yes
1,Joshua Hohnke,M,2001-08-23,Australia,Sleeves,J20-23,66.8,67.5,190,200,,200,130,-135,-135,130,210,-227.5,-227.5,210,540,SBD,Yes
DQ,Harrison McMahon,M,2004-11-06,Australia,Sleeves,J20-23,65.2,67.5,-157.5,-162.5,-162.5,,82.5,87.5,-90,87.5,187.5,-195,-195,187.5,,SBD,Yes
1,Aidan Clark,M,2003-06-06,Australia,Sleeves,J20-23,98.5,100,250,265,277.5,277.5,135,140,142.5,142.5,265,285,297.5,297.5,717.5,SBD,Yes
2,James Zentveld,M,2003-02-22,Australia,Sleeves,J20-23,94.4,100,235,250,-260,250,145,-155,155,155,270,300,-312.5,300,705,SBD,Yes
3,Jackson Reimers,M,2004-05-01,Australia,Sleeves,J20-23,95,100,220,-235,-235,220,140,150,155,155,270,290,-300,290,665,SBD,Yes
4,Morgan Church,M,2003-09-21,Australia,Sleeves,J20-23,99.3,100,220,230,235,235,142.5,150,155,155,250,265,-277.5,265,655,SBD,Yes
5,Samuel Adcock,M,2003-02-10,Australia,Sleeves,J20-23,97.7,100,217.5,230,-237.5,230,150,160,165,165,225,240,-247.5,240,635,SBD,Yes
1,Cuong Ken Huynh,M,1976-07-11,Australia,Sleeves,M40-49,65,67.5,175,185,190,190,-125,135,140,140,225,235,245,245,575,SBD,Yes
1,Martin Jackson,M,1980-08-31,Australia,Sleeves,M40-49,98.3,100,220,235,245,245,155,162.5,-167.5,162.5,255,267.5,272.5,272.5,680,SBD,Yes
1,Michael Quill,M,1951-03-29,Australia,Sleeves,M70+,65.2,67.5,-115,-120,120,120,90,95,100,100,115,120,125,125,345,SBD,Yes
1,Alan Muston,M,,Australia,Sleeves,M70+,97,100,190,200,205,205,117.5,122.5,-125,122.5,245,255,-260,255,582.5,SBD,Yes
2,John Meldrum,M,1953-01-28,Australia,Sleeves,M70+,90.6,100,145,-155,155,155,65,70,-75,70,170,180,-191,180,405,SBD,Yes
1,Burt-Raynold Samson,M,2003-01-16,Australia,Sleeves,Open,58,60,160,170,180,180,80,90,-95,90,150,170,-182.5,170,440,SBD,Yes
2,Damien Callaghan,M,1985-08-04,Australia,Sleeves,Open,59.2,60,115,125,-135,125,100,107.5,110,110,160,175,-185,175,410,SBD,Yes
1,Julian Sgro,M,1990-11-06,Australia,Sleeves,Open,66.9,67.5,217.5,-222.5,-222.5,217.5,135,137.5,-140,137.5,260,280,-290,280,635,SBD,Yes
2,Cuong Ken Huynh,M,1976-07-11,Australia,Sleeves,Open,65,67.5,175,185,190,190,-125,135,140,140,225,235,245,245,575,SBD,Yes
3,Joshua Hohnke,M,2001-08-23,Australia,Sleeves,Open,66.8,67.5,190,200,,200,130,-135,-135,130,210,-227.5,-227.5,210,540,SBD,Yes
4,Domenic Marafioti,M,1989-09-21,Australia,Sleeves,Open,66.3,67.5,160,172.5,-177.5,172.5,85,92.5,-97.5,92.5,225,-240,-240,225,490,SBD,Yes
5,Rhys Cameron,M,2005-09-19,Australia,Sleeves,Open,65.1,67.5,160,170,177.5,177.5,90,97.5,-100,97.5,185,195,205,205,480,SBD,Yes
6,Michael Quill,M,1951-03-29,Australia,Sleeves,Open,65.2,67.5,-115,-120,120,120,90,95,100,100,115,120,125,125,345,SBD,Yes
DQ,Harrison McMahon,M,2004-11-06,Australia,Sleeves,Open,65.2,67.5,-157.5,-162.5,-162.5,,82.5,87.5,-90,87.5,187.5,-195,-195,187.5,,SBD,Yes
1,Liam Belcher,M,,Australia,Sleeves,Open,97.5,100,-280,280,300.5,300.5,177.5,187.5,-190,187.5,290,300,-305,300,788,SBD,Yes
2,Chris Thomas #1,M,1990-06-07,Australia,Sleeves,Open,98.4,100,260,275,280,280,155,165,-167.5,165,310,-335,,310,755,SBD,Yes
3,Tom Hill,M,1996-10-24,Australia,Sleeves,Open,99.9,100,240,260,270,270,145,155,165,165,275,300,-322.5,300,735,SBD,Yes
4,Aidan Clark,M,2003-06-06,Australia,Sleeves,Open,98.5,100,250,265,277.5,277.5,135,140,142.5,142.5,265,285,297.5,297.5,717.5,SBD,Yes
5,James Zentveld,M,2003-02-22,Australia,Sleeves,Open,94.4,100,235,250,-260,250,145,-155,155,155,270,300,-312.5,300,705,SBD,Yes
6,Duane Fabian,M,1998-07-21,Australia,Sleeves,Open,98.5,100,200,227.5,245,245,140,150,155,155,260,280,302.5,302.5,702.5,SBD,Yes
7,Martin Jackson,M,1980-08-31,Australia,Sleeves,Open,98.3,100,220,235,245,245,155,162.5,-167.5,162.5,255,267.5,272.5,272.5,680,SBD,Yes
8,Travis Nash,M,1993-12-10,Australia,Sleeves,Open,97.3,100,220,240,250,250,140,150,-155,150,250,270,-280,270,670,SBD,Yes
9,Jackson Reimers,M,2004-05-01,Australia,Sleeves,Open,95,100,220,-235,-235,220,140,150,155,155,270,290,-300,290,665,SBD,Yes
10,Cameron Matheson,M,1992-01-31,Australia,Sleeves,Open,97.8,100,210,220,230,230,135,145,155,155,255,270,280,280,665,SBD,Yes
11,Nick Hawley,M,1985-05-20,Australia,Sleeves,Open,97.4,100,210,220,-225,220,155,-162.5,162.5,162.5,245,265,272.5,272.5,655,SBD,Yes
12,Morgan Church,M,2003-09-21,Australia,Sleeves,Open,99.3,100,220,230,235,235,142.5,150,155,155,250,265,-277.5,265,655,SBD,Yes
13,Samuel Adcock,M,2003-02-10,Australia,Sleeves,Open,97.7,100,217.5,230,-237.5,230,150,160,165,165,225,240,-247.5,240,635,SBD,Yes
14,Lachlan Rebetzke,M,,Australia,Sleeves,Open,98.5,100,220,232.5,-242.5,232.5,110,117.5,122.5,122.5,250,270,280,280,635,SBD,Yes
15,Michael De Souza,M,1993-05-18,Australia,Sleeves,Open,92.5,100,195,-212.5,215,215,130,142.5,-152.5,142.5,235,257.5,-282.5,257.5,615,SBD,Yes
16,Alan Muston,M,,Australia,Sleeves,Open,97,100,190,200,205,205,117.5,122.5,-125,122.5,245,255,-260,255,582.5,SBD,Yes
17,John Meldrum,M,1953-01-28,Australia,Sleeves,Open,90.6,100,145,-155,155,155,65,70,-75,70,170,180,-191,180,405,SBD,Yes
1,Rhys Cameron,M,2005-09-19,Australia,Sleeves,T16-19,65.1,67.5,160,170,177.5,177.5,90,97.5,-100,97.5,185,195,205,205,480,SBD,Yes
1,Asten Webster,M,2007-08-16,Australia,Wraps,Open,74.3,75,175,185.5,-190.5,185.5,102.5,107.5,110,110,185,195,205,205,500.5,SBD,Yes
2,Caleb Owens,M,2006-08-28,Australia,Wraps,Open,70.9,75,175,-185.5,-190,175,-100,105,-107.5,105,-190,200,-220,200,480,SBD,Yes
1,Conor Reilly,M,1993-06-18,Australia,Wraps,Open,98.5,100,270,290,-300,290,160,170,180,180,280,300,-310,300,770,SBD,Yes
2,Dalton Pike,M,1992-08-16,Australia,Wraps,Open,99.3,100,260,-270,280,280,170,175,180,180,260,270,-280,270,730,SBD,Yes
3,Andrew Olm,M,1988-07-01,Australia,Wraps,Open,96.8,100,255,267.5,-272.5,267.5,170,177.5,-180,177.5,240,247.5,-255,247.5,692.5,SBD,Yes
4,Alexander Kassis,M,1995-04-24,Australia,Wraps,Open,93.3,100,230,240,-250,240,165,-175,175,175,235,-240,240,240,655,SBD,Yes
5,Travis Reid,M,1998-11-29,Australia,Wraps,Open,99.3,100,217.5,227.5,232.5,232.5,125,135,140,140,240,260,-272.5,260,632.5,SBD,Yes
1,Asten Webster,M,2007-08-16,Australia,Wraps,T16-19,74.3,75,175,185.5,-190.5,185.5,102.5,107.5,110,110,185,195,205,205,500.5,SBD,Yes
2,Caleb Owens,M,2006-08-28,Australia,Wraps,T16-19,70.9,75,175,-185.5,-190,175,-100,105,-107.5,105,-190,200,-220,200,480,SBD,Yes
1,Cuong Ken Huynh,M,1976-07-11,Australia,Sleeves,M40-49,65,67.5,,,,,-125,135,140,140,,,,,140,B,Yes
1,Anthony O'Neill,M,1965-07-27,Australia,Sleeves,M50-59,98.4,100,,,,,135,145,-150,145,,,,,145,B,Yes
1,Cuong Ken Huynh,M,1976-07-11,Australia,Sleeves,Open,65,67.5,,,,,-125,135,140,140,,,,,140,B,Yes
1,Anthony O'Neill,M,1965-07-27,Australia,Sleeves,Open,98.4,100,,,,,135,145,-150,145,,,,,145,B,Yes
1,Cuong Ken Huynh,M,1976-07-11,Australia,Sleeves,M40-49,65,67.5,,,,,,,,,225,235,245,245,245,D,Yes
1,Cuong Ken Huynh,M,1976-07-11,Australia,Sleeves,Open,65,67.5,,,,,,,,,225,235,245,245,245,D,Yes
1,Chelsea Smith #1,F,2002-06-18,Australia,Sleeves,J20-23,72.9,75,150,162.5,-170.5,162.5,70,75,77.5,77.5,180,194,200,200,440,SBD,Yes
2,Neva Flynn,F,2001-03-14,Australia,Sleeves,J20-23,74.4,75,152.5,162.5,-170.5,162.5,85,90,92.5,92.5,170,185,-192.5,185,440,SBD,Yes
3,Abbey Monaghan,F,2002-09-24,Australia,Sleeves,J20-23,74,75,140,152.5,-160,152.5,92.5,97.5,100.5,100.5,160,172.5,-182.5,172.5,425.5,SBD,Yes
4,Emma Darcey,F,2001-08-09,Australia,Sleeves,J20-23,74.6,75,-150,-150,150,150,75,80,82.5,82.5,160,-172.5,172.5,172.5,405,SBD,Yes
5,Emily Brabazon,F,2001-02-05,Australia,Sleeves,J20-23,69.9,75,130,137.5,-142.5,137.5,70,75,-77.5,75,140,147.5,155,155,367.5,SBD,Yes
1,Trinity Daffern,F,2002-01-05,Australia,Sleeves,J20-23,86.9,90,145,155,160,160,92.5,97.5,102.5,102.5,152.5,162.5,-172.5,162.5,425,SBD,Yes
1,Lee-Anne McCormack,F,1979-06-26,Australia,Sleeves,M40-49,71.3,75,145,-155,-155,145,87.5,-92.5,-92.5,87.5,175,182.5,-190,182.5,415,SBD,Yes
2,Kylie Noonan,F,1977-04-01,Australia,Sleeves,M40-49,71.3,75,-117.5,-120,120,120,60,-65,-65,60,145,155,162.5,162.5,342.5,SBD,Yes
1,Rachel Flavin,F,1983-05-28,Australia,Sleeves,M40-49,85.4,90,157.5,165,170.5,170.5,77.5,82.5,85,85,157.5,170,-172.5,170,425.5,SBD,Yes
2,Jaclyn Legg,F,1982-03-22,Australia,Sleeves,M40-49,89.7,90,137.5,,,137.5,70,,,70,75,,,75,282.5,SBD,Yes
1,Jacqueline Mooney,F,1972-09-21,Australia,Sleeves,M50-59,87,90,130,142.5,147.5,147.5,75,80,82.5,82.5,150,167.5,-172.5,167.5,397.5,SBD,Yes
2,Dianne Reeves,F,1969-03-10,Australia,Sleeves,M50-59,86.2,90,110,120,125,125,57.5,65,67.5,67.5,147.5,160,-165,160,352.5,SBD,Yes
3,Pat O'Connell,F,1968-03-28,Australia,Sleeves,M50-59,88.6,90,105,110,-115,110,52.5,55,57.5,57.5,152.5,-160,-160,152.5,320,SBD,Yes
1,Wendy Hamilton,F,1957-12-18,Australia,Sleeves,M60-69,69.6,75,82.5,95,,95,50,-56.5,,50,130,142.5,147.5,147.5,292.5,SBD,Yes
1,Alyrah Forrest,F,1996-02-21,Australia,Sleeves,Open,70.8,75,180,190,195,195,87.5,-92.5,-92.5,87.5,195,-205,,195,477.5,SBD,Yes
2,Joanne Henry #1,F,1987-03-19,Australia,Sleeves,Open,73.4,75,165,172.5,177.5,177.5,80,85,-87.5,85,172.5,180,185,185,447.5,SBD,Yes
3,Chelsea Smith #1,F,2002-06-18,Australia,Sleeves,Open,72.9,75,150,162.5,-170.5,162.5,70,75,77.5,77.5,180,194,200,200,440,SBD,Yes
4,Neva Flynn,F,2001-03-14,Australia,Sleeves,Open,74.4,75,152.5,162.5,-170.5,162.5,85,90,92.5,92.5,170,185,-192.5,185,440,SBD,Yes
5,Emily Burr,F,1999-06-22,Australia,Sleeves,Open,73.5,75,160,167.5,-172.5,167.5,95,-100,-100,95,160,167.5,172.5,172.5,435,SBD,Yes
6,Teisa Holani,F,1990-06-26,Australia,Sleeves,Open,74.5,75,-142.5,142.5,152.5,152.5,75,80,85,85,170,187.5,192.5,192.5,430,SBD,Yes
7,Abbey Monaghan,F,2002-09-24,Australia,Sleeves,Open,74,75,140,152.5,-160,152.5,92.5,97.5,100.5,100.5,160,172.5,-182.5,172.5,425.5,SBD,Yes
8,Bianca Thornton,F,1992-07-21,Australia,Sleeves,Open,68.5,75,142.5,150,155,155,72.5,-80,-80,72.5,175,187.5,197.5,197.5,425,SBD,Yes
9,Lee-Anne McCormack,F,1979-06-26,Australia,Sleeves,Open,71.3,75,145,-155,-155,145,87.5,-92.5,-92.5,87.5,175,182.5,-190,182.5,415,SBD,Yes
10,Peta Ker,F,1995-10-15,Australia,Sleeves,Open,74.5,75,132.5,140,147.5,147.5,82.5,87.5,-90,87.5,160,170,180,180,415,SBD,Yes
11,Emma Darcey,F,2001-08-09,Australia,Sleeves,Open,74.6,75,-150,-150,150,150,75,80,82.5,82.5,160,-172.5,172.5,172.5,405,SBD,Yes
12,Kelly Batterham,F,1999-01-20,Australia,Sleeves,Open,70.9,75,130,140,145,145,70,75,77.5,77.5,155,167.5,177.5,177.5,400,SBD,Yes
13,Sapphire Vaega,F,1989-06-21,Australia,Sleeves,Open,74.6,75,125,-132.5,132.5,132.5,75,80,-82.5,80,160,170,182.5,182.5,395,SBD,Yes
14,Alessandra Perry,F,2000-01-27,Australia,Sleeves,Open,72.9,75,137.5,147.5,155,155,70,77.5,-82.5,77.5,140,155,-160,155,387.5,SBD,Yes
15,Wan Chi Chu,F,1998-10-24,Australia,Sleeves,Open,73.8,75,110,-120,120,120,85,90,-95,90,155,160,170,170,380,SBD,Yes
16,Brandy Muller,F,1999-05-17,Australia,Sleeves,Open,74.1,75,140,147.5,150,150,70,75,77.5,77.5,140,150,-155,150,377.5,SBD,Yes
17,Jessica De Jong,F,1997-09-26,Australia,Sleeves,Open,72.5,75,130,137.5,142.5,142.5,67.5,70,-72.5,70,140,150,157.5,157.5,370,SBD,Yes
18,Emily Brabazon,F,2001-02-05,Australia,Sleeves,Open,69.9,75,130,137.5,-142.5,137.5,70,75,-77.5,75,140,147.5,155,155,367.5,SBD,Yes
19,Leila Warnes,F,1997-04-24,Australia,Sleeves,Open,72.5,75,115,125,130,130,70,75,77.5,77.5,145,155,-165,155,362.5,SBD,Yes
20,Trixie Maddick,F,1992-08-09,Australia,Sleeves,Open,74.1,75,135,145,-147.5,145,70,75,-80,75,140,-152.5,-152.5,140,360,SBD,Yes
21,Kylie Noonan,F,1977-04-01,Australia,Sleeves,Open,71.3,75,-117.5,-120,120,120,60,-65,-65,60,145,155,162.5,162.5,342.5,SBD,Yes
22,Wendy Hamilton,F,1957-12-18,Australia,Sleeves,Open,69.6,75,82.5,95,,95,50,-56.5,,50,130,142.5,147.5,147.5,292.5,SBD,Yes
1,Rachel Flavin,F,1983-05-28,Australia,Sleeves,Open,85.4,90,157.5,165,170.5,170.5,77.5,82.5,85,85,157.5,170,-172.5,170,425.5,SBD,Yes
2,Trinity Daffern,F,2002-01-05,Australia,Sleeves,Open,86.9,90,145,155,160,160,92.5,97.5,102.5,102.5,152.5,162.5,-172.5,162.5,425,SBD,Yes
3,Sarah Brown #6,F,1991-11-18,Australia,Sleeves,Open,85.7,90,140,150,160,160,77.5,85,-90,85,155,167.5,172.5,172.5,417.5,SBD,Yes
4,Deyana Stuebner,F,1990-11-13,Australia,Sleeves,Open,87.6,90,142.5,152.5,-160,152.5,82.5,-87.5,-90,82.5,175,-185,-185,175,410,SBD,Yes
5,Audrey Michelin,F,1986-04-25,Australia,Sleeves,Open,87.6,90,137.5,145,-152.5,145,70,75,77.5,77.5,157.5,170,180,180,402.5,SBD,Yes
6,Bonnie Churchill,F,1990-05-28,Australia,Sleeves,Open,90,90,137.5,145,150,150,82.5,87.5,-90,87.5,152.5,162.5,-170,162.5,400,SBD,Yes
7,Jacqueline Mooney,F,1972-09-21,Australia,Sleeves,Open,87,90,130,142.5,147.5,147.5,75,80,82.5,82.5,150,167.5,-172.5,167.5,397.5,SBD,Yes
8,Lee Thompson,F,1988-12-21,Australia,Sleeves,Open,88.9,90,135,142.5,145,145,67.5,70,72.5,72.5,145,157.5,162.5,162.5,380,SBD,Yes
9,Dianne Reeves,F,1969-03-10,Australia,Sleeves,Open,86.2,90,110,120,125,125,57.5,65,67.5,67.5,147.5,160,-165,160,352.5,SBD,Yes
10,Pat O'Connell,F,1968-03-28,Australia,Sleeves,Open,88.6,90,105,110,-115,110,52.5,55,57.5,57.5,152.5,-160,-160,152.5,320,SBD,Yes
11,Jaclyn Legg,F,1982-03-22,Australia,Sleeves,Open,89.7,90,137.5,,,137.5,70,,,70,75,,,75,282.5,SBD,Yes
1,Mel Newton,F,1980-11-01,Australia,Wraps,M40-49,72.5,75,125,-135,-135,125,57.5,60,62.5,62.5,150,157.5,165,165,352.5,SBD,Yes
1,Katie Beuers,F,1994-08-22,Australia,Wraps,Open,74.9,75,125,135,-145,135,75,-80,-80,75,140,147.5,-157.5,147.5,357.5,SBD,Yes
2,Mel Newton,F,1980-11-01,Australia,Wraps,Open,72.5,75,125,-135,-135,125,57.5,60,62.5,62.5,150,157.5,165,165,352.5,SBD,Yes
1,Jen Lawrence,F,1997-01-21,Australia,Wraps,Open,85.9,90,140,150,157.5,157.5,67.5,70,72.5,72.5,160,167.5,170,170,400,SBD,Yes
1,Lee-Anne McCormack,F,1979-06-26,Australia,Sleeves,M40-49,71.3,75,,,,,,,,,175,182.5,-190,182.5,182.5,D,Yes
1,Lee-Anne McCormack,F,1979-06-26,Australia,Sleeves,Open,71.3,75,,,,,,,,,175,182.5,-190,182.5,182.5,D,Yes
1,Jaiden Priestly,M,2001-03-27,Australia,Sleeves,J20-23,74.5,75,180,200,210,210,130,140,142.5,142.5,210,225,245,245,597.5,SBD,Yes
2,Ryan Said,M,2000-09-21,Australia,Sleeves,J20-23,74.5,75,200,210,-215,210,102.5,110,115,115,230,250,-275,250,575,SBD,Yes
3,Caleb Roth,M,2001-01-21,Australia,Sleeves,J20-23,74.4,75,180,195,-202.5,195,105,-112.5,-112.5,105,200,-225,-225,200,500,SBD,Yes
4,Scott Wong #1,M,,Australia,Sleeves,J20-23,74.5,75,170,-187.5,-187.5,170,115,120,125,125,155,175,185,185,480,SBD,Yes
1,Luke Irving,M,2002-08-12,Australia,Sleeves,J20-23,106.1,110,225,240,255,255,165,177.5,185,185,235,255,275,275,715,SBD,Yes
2,Chrisjan Villamel,M,2000-08-20,Australia,Sleeves,J20-23,106.5,110,235,250,-260,250,145,152.5,157.5,157.5,275,292.5,302.5,302.5,710,SBD,Yes
3,Vincent Takataka,M,2000-07-17,Australia,Sleeves,J20-23,107.8,110,227.5,240,245,245,170,-177.5,177.5,177.5,255,270,-280,270,692.5,SBD,Yes
4,Dan Breen #1,M,2003-06-10,Australia,Sleeves,J20-23,108.2,110,215,230,240,240,155,162.5,-170,162.5,260,280,-290,280,682.5,SBD,Yes
5,Tye Haywood,M,2001-04-23,Australia,Sleeves,J20-23,107.4,110,217.5,235,245,245,135,147.5,-152.5,147.5,245,260,265,265,657.5,SBD,Yes
1,Brett Jaffrey,M,1983-09-25,Australia,Sleeves,M40-49,106.8,110,240,255,,255,145,157.5,162.5,162.5,290,310,-322.5,310,727.5,SBD,Yes
2,Peter Kelly #1,M,1980-05-01,Australia,Sleeves,M40-49,109.7,110,225,235,245,245,132.5,137.5,-140,137.5,280,290,-305,290,672.5,SBD,Yes
3,Neal Donlan,M,1978-11-23,Australia,Sleeves,M40-49,107.9,110,205,222.5,-240,222.5,145,-155,155,155,255,267.5,275,275,652.5,SBD,Yes
4,Rik Callander,M,1980-07-01,Australia,Sleeves,M40-49,109.2,110,230,245,-252.5,245,135,-142.5,,135,235,250,260,260,640,SBD,Yes
5,David Mohn,M,1979-11-05,Australia,Sleeves,M40-49,108.4,110,225,237.5,245,245,120,127.5,132.5,132.5,235,255,-275.5,255,632.5,SBD,Yes
1,Travis Thomson #1,M,1996-08-06,Australia,Sleeves,Open,73.3,75,215,230,240,240,132.5,142.5,150,150,245,255,-270,255,645,SBD,Yes
2,Jaiden Priestly,M,2001-03-27,Australia,Sleeves,Open,74.5,75,180,200,210,210,130,140,142.5,142.5,210,225,245,245,597.5,SBD,Yes
3,Ryan Said,M,2000-09-21,Australia,Sleeves,Open,74.5,75,200,210,-215,210,102.5,110,115,115,230,250,-275,250,575,SBD,Yes
4,Marc Carino,M,1999-04-23,Australia,Sleeves,Open,73,75,190,200,-207.5,200,117.5,-125,-125,117.5,222.5,232.5,240,240,557.5,SBD,Yes
5,Sezer Turay,M,1994-05-17,Australia,Sleeves,Open,74.7,75,170,182.5,190,190,117.5,125,130,130,215,230,-245,230,550,SBD,Yes
6,Bris Bautista,M,1998-06-22,Australia,Sleeves,Open,71.6,75,165,175,185,185,105,112.5,-120,112.5,235,250,-260,250,547.5,SBD,Yes
7,Caleb Roth,M,2001-01-21,Australia,Sleeves,Open,74.4,75,180,195,-202.5,195,105,-112.5,-112.5,105,200,-225,-225,200,500,SBD,Yes
8,Scott Wong #1,M,,Australia,Sleeves,Open,74.5,75,170,-187.5,-187.5,170,115,120,125,125,155,175,185,185,480,SBD,Yes
9,Nick Galvin,M,2006-10-21,Australia,Sleeves,Open,72.5,75,162.5,172.5,177.5,177.5,102.5,-110,-110,102.5,170,185,195,195,475,SBD,Yes
DQ,Maverick Holloway,M,2006-12-22,Australia,Sleeves,Open,74.5,75,-175,-175,-175,,92.5,97.5,102.5,102.5,175,185,190,190,,SBD,Yes
1,Keerthan Dinesh,M,2007-06-15,Australia,Sleeves,Open,75.5,82.5,190,200,-210,200,95,105,-110,105,200,210,220,220,525,SBD,Yes
1,Asher Jones,M,2000-04-16,Australia,Sleeves,Open,109,110,255,272.5,285,285,185,195.5,200.5,200.5,250,277.5,285,285,770.5,SBD,Yes
2,Toese Fautua,M,1991-09-18,Australia,Sleeves,Open,108.8,110,280,300,-307.5,300,180,190,-195,190,270,277.5,-285,277.5,767.5,SBD,Yes
3,Nick Whiteside,M,1999-06-12,Australia,Sleeves,Open,104.3,110,235,250,-257.5,250,157.5,165,-170,165,295,315,325,325,740,SBD,Yes
4,Kye Tiedemann,M,1999-03-17,Australia,Sleeves,Open,109.6,110,-260,270,-280,270,170,180,-185,180,275,290,-300,290,740,SBD,Yes
5,Brett Jaffrey,M,1983-09-25,Australia,Sleeves,Open,106.8,110,240,255,,255,145,157.5,162.5,162.5,290,310,-322.5,310,727.5,SBD,Yes
6,Jonathan Pecar,M,1992-11-28,Australia,Sleeves,Open,107.1,110,245,260,-265,260,150,155,-160,155,290,305,-312.5,305,720,SBD,Yes
7,Daniel Spence,M,1998-09-28,Australia,Sleeves,Open,108.2,110,247.5,267.5,-275,267.5,157.5,165,-170,165,265,285,-292.5,285,717.5,SBD,Yes
8,Luke Irving,M,2002-08-12,Australia,Sleeves,Open,106.1,110,225,240,255,255,165,177.5,185,185,235,255,275,275,715,SBD,Yes
9,Chrisjan Villamel,M,2000-08-20,Australia,Sleeves,Open,106.5,110,235,250,-260,250,145,152.5,157.5,157.5,275,292.5,302.5,302.5,710,SBD,Yes
10,Ash Walshe,M,1991-05-16,Australia,Sleeves,Open,108.9,110,-225,230,255,255,150,165,-175,165,260,280,-290,280,700,SBD,Yes
11,Vincent Takataka,M,2000-07-17,Australia,Sleeves,Open,107.8,110,227.5,240,245,245,170,-177.5,177.5,177.5,255,270,-280,270,692.5,SBD,Yes
12,Dan Breen #1,M,2003-06-10,Australia,Sleeves,Open,108.2,110,215,230,240,240,155,162.5,-170,162.5,260,280,-290,280,682.5,SBD,Yes
13,Reece McLaughlin,M,1991-07-23,Australia,Sleeves,Open,108.9,110,270,-285,-285,270,150,160,-165,160,225,235,245,245,675,SBD,Yes
14,Peter Kelly #1,M,1980-05-01,Australia,Sleeves,Open,109.7,110,225,235,245,245,132.5,137.5,-140,137.5,280,290,-305,290,672.5,SBD,Yes
15,Tye Haywood,M,2001-04-23,Australia,Sleeves,Open,107.4,110,217.5,235,245,245,135,147.5,-152.5,147.5,245,260,265,265,657.5,SBD,Yes
16,Neal Donlan,M,1978-11-23,Australia,Sleeves,Open,107.9,110,205,222.5,-240,222.5,145,-155,155,155,255,267.5,275,275,652.5,SBD,Yes
17,Rik Callander,M,1980-07-01,Australia,Sleeves,Open,109.2,110,230,245,-252.5,245,135,-142.5,,135,235,250,260,260,640,SBD,Yes
18,David Mohn,M,1979-11-05,Australia,Sleeves,Open,108.4,110,225,237.5,245,245,120,127.5,132.5,132.5,235,255,-275.5,255,632.5,SBD,Yes
1,Nick Galvin,M,2006-10-21,Australia,Sleeves,T16-19,72.5,75,162.5,172.5,177.5,177.5,102.5,-110,-110,102.5,170,185,195,195,475,SBD,Yes
DQ,Maverick Holloway,M,2006-12-22,Australia,Sleeves,T16-19,74.5,75,-175,-175,-175,,92.5,97.5,102.5,102.5,175,185,190,190,,SBD,Yes
1,Keerthan Dinesh,M,2007-06-15,Australia,Sleeves,T16-19,75.5,82.5,190,200,-210,200,95,105,-110,105,200,210,220,220,525,SBD,Yes
1,Jack Wilkins,M,2002-03-02,Australia,Wraps,J20-23,109.1,110,305,317.5,330,330,145,150,,150,75,,,75,555,SBD,Yes
1,Nino Laciste,M,1999-05-05,Australia,Wraps,Open,107.3,110,270,295,307.5,307.5,140,152.5,162.5,162.5,270,292.5,305,305,775,SBD,Yes
2,Brenden Skrnjug,M,,Australia,Wraps,Open,108.5,110,275,-290,,275,155,160,165,165,262.5,277.5,285,285,725,SBD,Yes
3,Angus Roxborough,M,1997-03-27,Australia,Wraps,Open,107.1,110,255,-265,-265,255,160,165,-170,165,250,260,262.5,262.5,682.5,SBD,Yes
4,Dale Clarke,M,1990-06-20,Australia,Wraps,Open,107.2,110,-225,225,-240,225,140,150,-155,150,250,262.5,270,270,645,SBD,Yes
5,Jack Wilkins,M,2002-03-02,Australia,Wraps,Open,109.1,110,305,317.5,330,330,145,150,,150,75,,,75,555,SBD,Yes
1,Colin Mynard,M,1971-08-08,Australia,Sleeves,M50-59,103.5,110,,,,,155,160,165,165,,,,,165,B,Yes
1,Matthew Martino #3,M,,Australia,Sleeves,Open,106.1,110,,,,,160,170,175,175,,,,,175,B,Yes
2,Colin Mynard,M,1971-08-08,Australia,Sleeves,Open,103.5,110,,,,,155,160,165,165,,,,,165,B,Yes
3,Daniel Fusimalohi,M,1997-03-08,Australia,Sleeves,Open,107.5,110,,,,,152.5,165,-177.5,165,,,,,165,B,Yes
1,Peter Kelly #1,M,1980-05-01,Australia,Sleeves,M40-49,109.7,110,,,,,,,,,280,290,-305,290,290,D,Yes
1,Peter Kelly #1,M,1980-05-01,Australia,Sleeves,Open,109.7,110,,,,,,,,,280,290,-305,290,290,D,Yes
1,Nino Laciste,M,1999-05-05,Australia,Raw,Open,107.3,110,,,,,,,,,270,292.5,305,305,305,D,Yes
1,Jessica Hall #1,F,2003-12-04,Australia,Sleeves,J20-23,79.6,82.5,-145,145,150,150,72.5,77.5,-80,77.5,187.5,197.5,202.5,202.5,430,SBD,Yes
2,Jenna Hall #1,F,,Australia,Sleeves,J20-23,81.9,82.5,155,160,165,165,62.5,67.5,72.5,72.5,150,157.5,162.5,162.5,400,SBD,Yes
3,Caitlin Grotjahn,F,2000-08-07,Australia,Sleeves,J20-23,81.8,82.5,115,125,132.5,132.5,-85,90,-97.5,90,140,155,162.5,162.5,385,SBD,Yes
4,Anna Goodman,F,2002-07-01,Australia,Sleeves,J20-23,82.1,82.5,120,130,140,140,52.5,57.5,-60,57.5,160,170,182.5,182.5,380,SBD,Yes
5,Viola Karisa,F,2000-08-11,Australia,Sleeves,J20-23,78.7,82.5,127.5,135,142.5,142.5,65,70,-75,70,127.5,140,152.5,152.5,365,SBD,Yes
1,Kaye Mercer,F,1976-08-02,Australia,Sleeves,M40-49,79.5,82.5,152.5,162.5,167.5,167.5,70,75,77.5,77.5,145,160,165,165,410,SBD,Yes
2,Nicci Makin,F,1984-01-06,Australia,Sleeves,M40-49,78.5,82.5,137.5,145,-150,145,75,-80,-80,75,165,172.5,-180,172.5,392.5,SBD,Yes
3,Sarah Butler #1,F,1981-11-24,Australia,Sleeves,M40-49,79.9,82.5,115,-125,125,125,70,75,-77.5,75,160,170,177.5,177.5,377.5,SBD,Yes
4,Michelle Weston,F,1981-07-31,Australia,Sleeves,M40-49,79.8,82.5,-135,-135,135,135,75,80,82.5,82.5,135,145,155,155,372.5,SBD,Yes
1,Toni Roi,F,1983-10-10,Australia,Sleeves,M40-49,97.8,100,155,-160,,155,80,85,87.5,87.5,145,155,162.5,162.5,405,SBD,Yes
2,Candice Boynton,F,1976-06-22,Australia,Sleeves,M40-49,99.6,100,125,130,135,135,-72.5,77.5,80,80,155,167.5,-176,167.5,382.5,SBD,Yes
1,Kim Harris #1,F,1976-08-27,Australia,Sleeves,M40-49,107.6,110,150,160,-167.5,160,62.5,65,70,70,162.5,172.5,180,180,410,SBD,Yes
1,Tasha Page,F,1971-10-08,Australia,Sleeves,M50-59,81,82.5,-110,-120,120,120,70,75,-77.5,75,150,162.5,175,175,370,SBD,Yes
1,Nicola Cottington,F,1972-09-18,Australia,Sleeves,M50-59,97.9,100,125,-132.5,-140,125,70,75,,75,162.5,175,-186.5,175,375,SBD,Yes
1,Susan Maguire,F,1962-09-26,Australia,Sleeves,M60-69,82.4,82.5,95,100,105,105,60,62.5,-65,62.5,125,132.5,140,140,307.5,SBD,Yes
1,Margaret Pukallus,F,1950-12-18,Australia,Sleeves,M70+,81.8,82.5,95,105,110,110,37.5,40,-42.5,40,115,127.5,-132.5,127.5,277.5,SBD,Yes
1,Kaity O'Connell,F,1997-07-16,Australia,Sleeves,Open,80.7,82.5,140,150,155,155,82.5,87.5,-90,87.5,180,190,192.5,192.5,435,SBD,Yes
2,Teresa Harrington,F,1987-08-18,Australia,Sleeves,Open,81.2,82.5,150,155,160,160,100,102.5,105,105,157.5,170,-177.5,170,435,SBD,Yes
3,Jessica Hall #1,F,2003-12-04,Australia,Sleeves,Open,79.6,82.5,-145,145,150,150,72.5,77.5,-80,77.5,187.5,197.5,202.5,202.5,430,SBD,Yes
4,Laura Jones #1,F,1986-12-16,Australia,Sleeves,Open,80.7,82.5,137.5,145,150,150,77.5,82.5,85,85,165,175,187.5,187.5,422.5,SBD,Yes
5,Alexandra Nield,F,1992-06-27,Australia,Sleeves,Open,80.3,82.5,140,155,-160,155,85,92.5,95,95,155,170,-190,170,420,SBD,Yes
6,Kaye Mercer,F,1976-08-02,Australia,Sleeves,Open,79.5,82.5,152.5,162.5,167.5,167.5,70,75,77.5,77.5,145,160,165,165,410,SBD,Yes
7,Rachel Morrissey,F,1999-01-26,Australia,Sleeves,Open,79.8,82.5,145,-155,160,160,77.5,82.5,87.5,87.5,150,160,-170,160,407.5,SBD,Yes
8,Jenna Hall #1,F,,Australia,Sleeves,Open,81.9,82.5,155,160,165,165,62.5,67.5,72.5,72.5,150,157.5,162.5,162.5,400,SBD,Yes
9,Rebekah Simmons,F,1985-03-19,Australia,Sleeves,Open,81.9,82.5,145,-155,155,155,67.5,72.5,75,75,152.5,162.5,170,170,400,SBD,Yes
10,Nicci Makin,F,1984-01-06,Australia,Sleeves,Open,78.5,82.5,137.5,145,-150,145,75,-80,-80,75,165,172.5,-180,172.5,392.5,SBD,Yes
11,Caitlin Grotjahn,F,2000-08-07,Australia,Sleeves,Open,81.8,82.5,115,125,132.5,132.5,-85,90,-97.5,90,140,155,162.5,162.5,385,SBD,Yes
12,Anna Goodman,F,2002-07-01,Australia,Sleeves,Open,82.1,82.5,120,130,140,140,52.5,57.5,-60,57.5,160,170,182.5,182.5,380,SBD,Yes
13,Sarah Butler #1,F,1981-11-24,Australia,Sleeves,Open,79.9,82.5,115,-125,125,125,70,75,-77.5,75,160,170,177.5,177.5,377.5,SBD,Yes
14,Michelle Weston,F,1981-07-31,Australia,Sleeves,Open,79.8,82.5,-135,-135,135,135,75,80,82.5,82.5,135,145,155,155,372.5,SBD,Yes
15,Tasha Page,F,1971-10-08,Australia,Sleeves,Open,81,82.5,-110,-120,120,120,70,75,-77.5,75,150,162.5,175,175,370,SBD,Yes
16,Viola Karisa,F,2000-08-11,Australia,Sleeves,Open,78.7,82.5,127.5,135,142.5,142.5,65,70,-75,70,127.5,140,152.5,152.5,365,SBD,Yes
17,Susan Maguire,F,1962-09-26,Australia,Sleeves,Open,82.4,82.5,95,100,105,105,60,62.5,-65,62.5,125,132.5,140,140,307.5,SBD,Yes
18,Margaret Pukallus,F,1950-12-18,Australia,Sleeves,Open,81.8,82.5,95,105,110,110,37.5,40,-42.5,40,115,127.5,-132.5,127.5,277.5,SBD,Yes
1,Brianna Longstaff,F,1987-11-02,Australia,Sleeves,Open,97.9,100,167.5,172.5,175,175,85,90,92.5,92.5,187.5,197.5,205,205,472.5,SBD,Yes
2,Corinne Celestina,F,1987-09-13,Australia,Sleeves,Open,95.6,100,157.5,170,180,180,82.5,87.5,90,90,170,185,200,200,470,SBD,Yes
3,Kirsty Rowell,F,1991-01-18,Australia,Sleeves,Open,96.4,100,150,157.5,162.5,162.5,72.5,75,77.5,77.5,185,195,-202.5,195,435,SBD,Yes
4,Casey Hornby,F,1991-11-15,Australia,Sleeves,Open,99.3,100,-150,155,-160,155,85,90,92.5,92.5,152.5,165,-177.5,165,412.5,SBD,Yes
5,Toni Roi,F,1983-10-10,Australia,Sleeves,Open,97.8,100,155,-160,,155,80,85,87.5,87.5,145,155,162.5,162.5,405,SBD,Yes
6,Kylee Evans,F,1987-09-24,Australia,Sleeves,Open,96.4,100,127.5,-145,155,155,65,70,-75,70,147.5,170,-190,170,395,SBD,Yes
7,Candice Boynton,F,1976-06-22,Australia,Sleeves,Open,99.6,100,125,130,135,135,-72.5,77.5,80,80,155,167.5,-176,167.5,382.5,SBD,Yes
8,Nicola Cottington,F,1972-09-18,Australia,Sleeves,Open,97.9,100,125,-132.5,-140,125,70,75,,75,162.5,175,-186.5,175,375,SBD,Yes
1,Desiree Meauta,F,1994-09-04,Australia,Sleeves,Open,109.3,110,-185,185,-195,185,87.5,95,-100,95,195,210,220,220,500,SBD,Yes
2,Shonee Samia,F,1992-03-20,Australia,Sleeves,Open,106.1,110,135,147.5,-160,147.5,90,95,100,100,195,205,211.5,211.5,459,SBD,Yes
3,Michelle Derrick,F,1999-02-23,Australia,Sleeves,Open,105.7,110,165,175,-185,175,80,90,95,95,150,165,170,170,440,SBD,Yes
4,Danielle Cox,F,1984-03-09,Australia,Sleeves,Open,103.3,110,-175,175,-190,175,75,80,-82.5,80,152.5,162.5,170,170,425,SBD,Yes
5,Leilani Te Huia,F,1985-03-12,Australia,Sleeves,Open,109.5,110,150,160,167.5,167.5,77.5,82.5,85,85,157.5,165,170,170,422.5,SBD,Yes
6,Kim Harris #1,F,1976-08-27,Australia,Sleeves,Open,107.6,110,150,160,-167.5,160,62.5,65,70,70,162.5,172.5,180,180,410,SBD,Yes
1,Sophie Watts,F,1999-04-25,Australia,Sleeves,Open,110.1,110+,160,170,177.5,177.5,87.5,92.5,95,95,160,170,,170,442.5,SBD,Yes
2,Lauren Gallie,F,1989-07-26,Australia,Sleeves,Open,131.4,110+,145,147.5,160,160,87.5,97.5,-102.5,97.5,152.5,167.5,,167.5,425,SBD,Yes
3,Megan Galvin,F,1993-06-22,Australia,Sleeves,Open,154.7,110+,145,150,-155,150,72.5,75,77.5,77.5,160,165,,165,392.5,SBD,Yes
1,Katherine Wright,F,1976-02-01,Australia,Wraps,M40-49,82.2,82.5,-165,165,175,175,95,100,-102.5,100,165,180,185,185,460,SBD,Yes
2,Joanne Forden,F,1981-08-22,Australia,Wraps,M40-49,79.9,82.5,-165,165,-176,165,105,111,-112.5,111,170,180,-183,180,456,SBD,Yes
1,Sinead Houston,F,1979-05-07,Australia,Wraps,M40-49,98.6,100,145,155,160,160,70,72.5,75,75,155,165,,165,400,SBD,Yes
1,Donna White,F,1974-03-05,Australia,Wraps,M50-59,79.7,82.5,-120,120,130,130,60,65,-70,65,160,172.5,175.5,175.5,370.5,SBD,Yes
2,Yolanda Fourie,F,1974-05-01,Australia,Wraps,M50-59,80.8,82.5,-125,-125,125,125,62.5,67.5,70,70,145,155,-160,155,350,SBD,Yes
1,Kylie Findley,F,1969-11-05,Australia,Wraps,M50-59,120.2,110+,155,-162.5,162.5,162.5,65,72.5,-77.5,72.5,150,160,,160,395,SBD,Yes
1,Belynda Cocking,F,1991-03-12,Australia,Wraps,Open,82.2,82.5,180,190,200,200,80,85,-87.5,85,190,200,-210,200,485,SBD,Yes
2,Katherine Wright,F,1976-02-01,Australia,Wraps,Open,82.2,82.5,-165,165,175,175,95,100,-102.5,100,165,180,185,185,460,SBD,Yes
3,Joanne Forden,F,1981-08-22,Australia,Wraps,Open,79.9,82.5,-165,165,-176,165,105,111,-112.5,111,170,180,-183,180,456,SBD,Yes
4,Lee Musgrave,F,1988-11-20,Australia,Wraps,Open,82,82.5,-170,170,-182.5,170,82.5,85,-87.5,85,175,187.5,-200,187.5,442.5,SBD,Yes
5,Felicity McCann,F,1987-02-10,Australia,Wraps,Open,77.7,82.5,140,-150,-150,140,80,82.5,-85,82.5,185,-200,-200,185,407.5,SBD,Yes
6,Simone Von Zum Hof,F,2000-05-29,Australia,Wraps,Open,81.3,82.5,145,-155,-155,145,60,65,,65,165,175,180,180,390,SBD,Yes
7,Donna White,F,1974-03-05,Australia,Wraps,Open,79.7,82.5,-120,120,130,130,60,65,-70,65,160,172.5,175.5,175.5,370.5,SBD,Yes
8,Yolanda Fourie,F,1974-05-01,Australia,Wraps,Open,80.8,82.5,-125,-125,125,125,62.5,67.5,70,70,145,155,-160,155,350,SBD,Yes
1,Morgan Tobin,F,1987-03-07,Australia,Wraps,Open,96.8,100,175,190,-200,190,75,80,,80,185,195,,195,465,SBD,Yes
2,Abba Samman,F,1993-02-25,Australia,Wraps,Open,94.8,100,170,182.5,190,190,85,90,-92.5,90,175,-187.5,,175,455,SBD,Yes
3,Sinead Houston,F,1979-05-07,Australia,Wraps,Open,98.6,100,145,155,160,160,70,72.5,75,75,155,165,,165,400,SBD,Yes
1,Larnah Lowe,F,1985-07-24,Australia,Wraps,Open,108.1,110,185,-195,-195,185,97.5,105,-110,105,180,190,,190,480,SBD,Yes
2,Kenisha Laffey,F,1993-09-12,Australia,Wraps,Open,109.7,110,170,-180,-185,170,85,90,95,95,185,192.5,,192.5,457.5,SBD,Yes
1,Maia Carrington,F,2000-05-05,Australia,Wraps,Open,124.1,110+,-190,190,-202.5,190,110,115,-120,115,200,,,200,505,SBD,Yes
2,Gabrielle Grieves,F,1997-06-21,Australia,Wraps,Open,116.3,110+,185,195,200,200,75,80,-85,80,175,190,,190,470,SBD,Yes
3,Kylie Findley,F,1969-11-05,Australia,Wraps,Open,120.2,110+,155,-162.5,162.5,162.5,65,72.5,-77.5,72.5,150,160,,160,395,SBD,Yes
1,Felicity McCann,F,1987-02-10,Australia,Raw,Open,77.7,82.5,,,,,,,,,185,-200,-200,185,185,D,Yes
1,Luke Price #1,M,1980-08-27,Australia,Sleeves,M40-49,119.3,125,240,-250,255,255,180,187.5,-190.5,187.5,250,265,275,275,717.5,SBD,Yes
2,Clyde Butler,M,1978-02-09,Australia,Sleeves,M40-49,116.5,125,240,260,-276,260,160,180,-190,180,240,260,270,270,710,SBD,Yes
3,Leslie Harris #2,M,1980-09-13,Australia,Sleeves,M40-49,121.3,125,230,242.5,-247.5,242.5,145,152.5,-157.5,152.5,265,275,-282.5,275,670,SBD,Yes
1,Bronco Deiranauw,M,1991-04-03,Nauru,Sleeves,Open,124.5,125,350,-360,-360,350,185,192.5,197.5,197.5,240,255,265,265,812.5,SBD,Yes
2,Gardiner Whiteside,M,1991-02-15,Australia,Sleeves,Open,123.4,125,300,320,-327.5,320,160,170,172.5,172.5,290,305,-320,305,797.5,SBD,Yes
3,Molesi Paulo,M,2000-06-20,Australia,Sleeves,Open,124.6,125,250,267.5,275,275,175,182.5,187.5,187.5,250,275,285,285,747.5,SBD,Yes
4,Matthew Theobald,M,1992-05-26,Australia,Sleeves,Open,125,125,220,250,272.5,272.5,160,172.5,182.5,182.5,240,260,280,280,735,SBD,Yes
5,Dylan Falzon,M,1997-07-24,Australia,Sleeves,Open,122.3,125,225,-250,275,275,140,155,170,170,225,260,285,285,730,SBD,Yes
6,Luke Price #1,M,1980-08-27,Australia,Sleeves,Open,119.3,125,240,-250,255,255,180,187.5,-190.5,187.5,250,265,275,275,717.5,SBD,Yes
7,Clyde Butler,M,1978-02-09,Australia,Sleeves,Open,116.5,125,240,260,-276,260,160,180,-190,180,240,260,270,270,710,SBD,Yes
8,Federico Pastorelli,M,1985-04-03,Australia,Sleeves,Open,119.1,125,235,252.5,262.5,262.5,160,-170,-170,160,265,-285,-285,265,687.5,SBD,Yes
9,Jackson Hart #1,M,1994-04-05,Australia,Sleeves,Open,124.7,125,220,240,250,250,142.5,152.5,160,160,240,262.5,275,275,685,SBD,Yes
10,Leslie Harris #2,M,1980-09-13,Australia,Sleeves,Open,121.3,125,230,242.5,-247.5,242.5,145,152.5,-157.5,152.5,265,275,-282.5,275,670,SBD,Yes
11,Aaron Bell #1,M,1993-04-28,Australia,Sleeves,Open,122.5,125,245,-260,-260,245,145,155,-165,155,245,255,-270,255,655,SBD,Yes
1,Tai Seuga,M,,Australia,Sleeves,Open,134.2,140,292.5,315,330,330,187.5,200,210,210,275,300,315,315,855,SBD,Yes
2,Darrell Tarrant-O'Neill,M,,Australia,Sleeves,Open,136.3,140,230,240,-245,240,160,-165,165,165,280,300,-313.5,300,705,SBD,Yes
1,Jake Daulby,M,,Australia,Sleeves,Open,154.2,140+,245,260,265,265,170,180,187.5,187.5,250,275,287.5,287.5,740,SBD,Yes
1,Oskar Jarvie,M,1980-02-26,Australia,Wraps,M40-49,121.9,125,-300,300,-330,300,170,182.5,-190,182.5,280,292.5,-305,292.5,775,SBD,Yes
1,Oskar Jarvie,M,1980-02-26,Australia,Wraps,Open,121.9,125,-300,300,-330,300,170,182.5,-190,182.5,280,292.5,-305,292.5,775,SBD,Yes
2,Lochlan Horstman,M,,Australia,Wraps,Open,123.3,125,260,280,-290,280,180,192.5,200,200,250,270,-292.5,270,750,SBD,Yes
1,Joshua Stevens,M,,Australia,Wraps,Open,133.6,140,290,-305,-310,290,-190,190,202.5,202.5,270,290,-310,290,782.5,SBD,Yes
1,January Meauta,M,,Australia,Wraps,Open,166.6,140+,307.5,330,-342.5,330,195,-212.5,-212.5,195,255,-265,-270,255,780,SBD,Yes
1,Lochlan Horstman,M,,Australia,Wraps,T16-19,123.3,125,260,280,-290,280,180,192.5,200,200,250,270,-292.5,270,750,SBD,Yes
1,Bronco Deiranauw,M,1991-04-03,Nauru,Sleeves,Open,124.5,125,,,,,185,192.5,197.5,197.5,,,,,197.5,B,Yes
2,Gardiner Whiteside,M,1991-02-15,Australia,Sleeves,Open,123.4,125,,,,,160,170,172.5,172.5,,,,,172.5,B,Yes
3,Paul Bouzas,M,1995-03-21,Australia,Sleeves,Open,118.4,125,,,,,150,-162.5,162.5,162.5,,,,,162.5,B,Yes
1,Gardiner Whiteside,M,1991-02-15,Australia,Sleeves,Open,123.4,125,,,,,,,,,290,305,-320,305,305,D,Yes
