Division,WeightClassKg,Place,Name,Team,BodyweightKg,Best3SquatKg,Best3BenchKg,Best3DeadliftKg,TotalKg,Equipment,Event,Sex,BirthDate
Boys,51.71,1,Erick Estrella,Brownsville Lopez,50.89,167.83,92.99,170.1,430.91,Single-ply,SBD,M,
Boys,51.71,2,Jay Vasquez,Weslaco East,50.98,142.88,81.65,154.22,378.75,Single-ply,SBD,M,
Boys,51.71,3,Tyler Martinez #2,Edcouch-Elsa,50.08,140.61,77.11,149.69,367.41,Single-ply,SBD,M,
Boys,51.71,4,Daniel Montoya,Gregory-Portland,51.71,140.61,83.91,140.61,365.14,Single-ply,SBD,M,
Boys,51.71,5,Kody Estes,Donna,50.8,136.08,65.77,136.08,337.93,Single-ply,SBD,M,
Boys,51.71,6,Brian Zambrano,Harlingen South,51.44,124.74,70.31,127.01,322.05,Single-ply,SBD,M,
Boys,51.71,7,Deondre Moody,Donna North,48.26,115.67,68.04,129.27,312.98,Single-ply,SBD,M,
Boys,51.71,8,Ethan Hernandez,Harlingen South,50.17,111.13,63.5,124.74,299.37,Single-ply,SBD,M,
Boys,51.71,9,Dashel Burrows,Sharyland Pioneer,46.08,88.45,63.5,111.13,263.08,Single-ply,SBD,M,
Boys,51.71,10,Ruben Aguilera,Donna North,49.08,83.91,56.7,102.06,242.67,Single-ply,SBD,M,
Boys,51.71,DQ,Julio Velasco,Brownsville Lopez,47.63,97.52,,,,Single-ply,SBD,M,
Boys,55.79,1,Richard Rodriguez,Edinburg,55.79,167.83,102.06,197.31,467.2,Single-ply,SBD,M,
Boys,55.79,2,Luis Garcia #9,Sharyland Pioneer,55.52,167.83,90.72,183.7,442.25,Single-ply,SBD,M,
Boys,55.79,3,Fred Mares,Edinburg,55.16,147.42,106.59,176.9,430.91,Single-ply,SBD,M,
Boys,55.79,4,Zuriell Garcia,Pharr Valley View,55.52,149.69,113.4,167.83,430.91,Single-ply,SBD,M,
Boys,55.79,5,Nate Martinez #2,Weslaco East,55.34,158.76,102.06,149.69,410.5,Single-ply,SBD,M,
Boys,55.79,6,Angel Rivera,McAllen Memorial,55.79,154.22,102.06,154.22,410.5,Single-ply,SBD,M,
Boys,55.79,7,Diego Agado,Weslaco,55.43,142.88,83.91,136.08,362.87,Single-ply,SBD,M,
Boys,55.79,8,John Acosta,Victoria West,54.98,120.2,83.91,151.95,356.07,Single-ply,SBD,M,
Boys,55.79,9,Joseph Ramirez,Brownsville Veterans Memorial,55.07,124.74,70.31,156.49,351.53,Single-ply,SBD,M,
Boys,55.79,10,Matthew Sanchez #4,Mission Veterans Memorial,54.79,124.74,74.84,138.35,337.93,Single-ply,SBD,M,
Boys,55.79,11,Matthew Mancias,Brownsville Hanna,54.43,124.74,81.65,127.01,333.39,Single-ply,SBD,M,
Boys,55.79,DQ,Brandon Minez,Brownsville Porter,55.79,,,,,Single-ply,SBD,M,
Boys,59.87,1,Ramiro Yanez,PSJA,59.87,215.46,108.86,238.14,562.45,Single-ply,SBD,M,
Boys,59.87,2,Jorge Guajardo,Weslaco East,59.51,197.31,113.4,210.92,521.63,Single-ply,SBD,M,
Boys,59.87,3,Ever Crispin,Edcouch-Elsa,59.24,190.51,120.2,204.12,514.83,Single-ply,SBD,M,
Boys,59.87,4,Roy Stroman,Weslaco,58.33,199.58,111.13,192.78,503.49,Single-ply,SBD,M,
Boys,59.87,5,Rolando Roldan,McAllen,59.87,188.24,115.67,195.04,498.95,Single-ply,SBD,M,
Boys,59.87,6,Israel Ramos,Brownsville Pace,59.78,192.78,102.06,192.78,487.61,Single-ply,SBD,M,
Boys,59.87,7,Ceyth Grevey,Victoria East,58.88,185.97,92.99,197.31,476.27,Single-ply,SBD,M,
Boys,59.87,8,Eric Gonzalez #2,Weslaco,58.88,167.83,95.25,170.1,433.18,Single-ply,SBD,M,
Boys,59.87,9,Isaias Salinas,McAllen Memorial,58.97,158.76,102.06,156.49,417.3,Single-ply,SBD,M,
Boys,59.87,DQ,Junior Rivera,Brownsville Rivera,58.06,,,,,Single-ply,SBD,M,
Boys,59.87,DQ,Adrian Garcia,Edinburg Economedes,59.51,,,,,Single-ply,SBD,M,
Boys,59.87,DQ,Junior Hernandez,Brownsville Rivera,58.6,183.7,,,,Single-ply,SBD,M,
Boys,67.13,1,Hugo Rodriguez,McAllen,66.41,251.74,145.15,208.65,605.55,Single-ply,SBD,M,
Boys,67.13,2,Patricio Chavez,Mission Sharyland,62.96,231.33,131.54,222.26,585.13,Single-ply,SBD,M,
Boys,67.13,3,Jaryd Amaro,PSJA Memorial,66.68,226.8,113.4,204.12,544.31,Single-ply,SBD,M,
Boys,67.13,4,Sam Burton,Los Fresnos,66.22,217.72,102.06,208.65,528.44,Single-ply,SBD,M,
Boys,67.13,5,Marcus Saenz,Weslaco,66.22,213.19,120.2,192.78,526.17,Single-ply,SBD,M,
Boys,67.13,6,Sam Gracia,Weslaco,66.5,215.46,108.86,190.51,514.83,Single-ply,SBD,M,
Boys,67.13,7,Bryan Ramirez,Edinburg North,66.41,183.7,106.59,204.12,494.42,Single-ply,SBD,M,
Boys,67.13,8,Valiente Rodriguez,Brownsville Pace,65.68,183.7,108.86,172.37,464.93,Single-ply,SBD,M,
Boys,67.13,DQ,Alex Lomas,McAllen Rowe,66.72,,,,,Single-ply,SBD,M,
Boys,67.13,DQ,Mario Marquez,Mission,66.22,,,,,Single-ply,SBD,M,
Boys,67.13,DQ,Evan Zamora,Weslaco,66.68,188.24,,,,Single-ply,SBD,M,
Boys,67.13,DQ,Jonathan Castillo,Edcouch-Elsa,66.77,249.48,,,,Single-ply,SBD,M,
Boys,74.84,1,Javier Pichardo,PSJA,73.21,285.76,151.95,263.08,700.8,Single-ply,SBD,M,
Boys,74.84,2,Luis De Hoyos,Mission Veterans Memorial,74.84,263.08,131.54,226.8,621.42,Single-ply,SBD,M,
Boys,74.84,3,Rolando Saenz,Mission Sharyland,73.39,242.67,131.54,215.46,589.67,Single-ply,SBD,M,
Boys,74.84,4,Sergio Perez,Mission Sharyland,74.03,231.33,136.08,206.38,573.79,Single-ply,SBD,M,
Boys,74.84,5,Tyler Rosales,PSJA North,73.48,226.8,149.69,195.04,571.53,Single-ply,SBD,M,
Boys,74.84,6,Diego Valdez #1,Edcouch-Elsa,73.66,204.12,133.81,222.26,560.19,Single-ply,SBD,M,
Boys,74.84,7,Alex Benavidez,Donna North,74.48,224.53,142.88,188.24,555.65,Single-ply,SBD,M,
Boys,74.84,8,Josue Ceron,Los Fresnos,73.39,208.65,136.08,208.65,553.38,Single-ply,SBD,M,
Boys,74.84,9,Antonio Anzaldua,Mercedes,74.21,201.85,129.27,192.78,523.9,Single-ply,SBD,M,
Boys,74.84,DQ,Leonardo Perez,Mission,71.76,,,,,Single-ply,SBD,M,
Boys,74.84,DQ,Alan Gonzalez,Mission Sharyland,73.3,,,,,Single-ply,SBD,M,
Boys,74.84,DQ,Juan Garza,Edinburg,74.21,238.14,156.49,,,Single-ply,SBD,M,
Boys,74.84,DQ,Jael Bernal,PSJA,73.3,226.8,142.88,,,Single-ply,SBD,M,
Boys,82.1,1,Sergio Lerma,Weslaco,80.38,306.17,133.81,265.35,705.34,Single-ply,SBD,M,
Boys,82.1,2,Robert Ortiz,Edinburg North,81.28,244.94,147.42,247.21,639.57,Single-ply,SBD,M,
Boys,82.1,3,John Bustos,Donna North,81.37,263.08,149.69,219.99,632.76,Single-ply,SBD,M,
Boys,82.1,4,Miguel Jimenez,Mercedes,80.56,238.14,140.61,247.21,625.96,Single-ply,SBD,M,
Boys,82.1,5,Joseph Garza,PSJA,79.92,244.94,120.2,247.21,612.35,Single-ply,SBD,M,
Boys,82.1,6,Seth Neibrandt,Victoria West,81.47,238.14,136.08,226.8,601.01,Single-ply,SBD,M,
Boys,82.1,7,Isreal Escobedo,Rio Grande City,79.38,213.19,131.54,240.4,585.13,Single-ply,SBD,M,
Boys,82.1,8,Juan Saenz,Edinburg North,81.19,224.53,158.76,195.04,578.33,Single-ply,SBD,M,
Boys,82.1,9,Angel Cantu,La Joya Palmview,78.74,204.12,136.08,204.12,544.31,Single-ply,SBD,M,
Boys,82.1,10,Victor Guerrero,Edcouch-Elsa,81.1,190.51,136.08,217.72,544.31,Single-ply,SBD,M,
Boys,82.1,DQ,Jude Jaime,Mission,78.02,,,,,Single-ply,SBD,M,
Boys,82.1,DQ,Rosbel Zamarripa,La Joya Palmview,79.83,244.94,140.61,,,Single-ply,SBD,M,
Boys,89.81,1,Jose Castelan,Brownsville Hanna,87.54,272.16,188.24,238.14,698.53,Single-ply,SBD,M,
Boys,89.81,2,Anthony Elvir,Los Fresnos,87.63,249.48,165.56,265.35,680.39,Single-ply,SBD,M,
Boys,89.81,3,Alan Torres,Los Fresnos,89.18,244.94,151.95,242.67,639.57,Single-ply,SBD,M,
Boys,89.81,4,Luis Rivera #3,Los Fresnos,87.91,244.94,154.22,235.87,635.03,Single-ply,SBD,M,
Boys,89.81,5,Josh Madrazo,Brownsville Veterans Memorial,89.18,247.21,147.42,240.4,635.03,Single-ply,SBD,M,
Boys,89.81,6,Luis Cacayoren,Brownsville Veterans Memorial,84.46,242.67,131.54,226.8,601.01,Single-ply,SBD,M,
Boys,89.81,7,Yael Herrera,Edinburg,88.54,226.8,147.42,224.53,598.74,Single-ply,SBD,M,
Boys,89.81,8,Francisco Castillo,Mission Veterans Memorial,89.81,208.65,154.22,226.8,589.67,Single-ply,SBD,M,
Boys,89.81,9,Enrique Marbulay,Harlingen South,89.81,231.33,124.74,215.46,571.53,Single-ply,SBD,M,
Boys,89.81,DQ,Zeke Cuadros,Mission,88.9,,,,,Single-ply,SBD,M,
Boys,89.81,DQ,Mauricio Galindo,Mission Sharyland,88.63,,,,,Single-ply,SBD,M,
Boys,89.81,DQ,Vince Castillo,PSJA North,84.91,260.82,,,,Single-ply,SBD,M,
Boys,89.81,DQ,Ethan Zamora,Weslaco,88.72,,,,,Single-ply,SBD,M,
Boys,99.79,1,Alberto Vargas,La Joya Palmview,97.7,294.84,210.92,265.35,771.11,Single-ply,SBD,M,
Boys,99.79,2,Larry Strickland,Weslaco,90.81,328.85,145.15,265.35,739.36,Single-ply,SBD,M,
Boys,99.79,3,Mathew Garza,Brownsville Rivera,91.63,265.35,151.95,263.08,680.39,Single-ply,SBD,M,
Boys,99.79,4,Jesus Hernandez #5,Brownsville Rivera,98.07,278.96,161.03,240.4,680.39,Single-ply,SBD,M,
Boys,99.79,5,Roan Galvan,Mercedes,94.71,272.16,176.9,226.8,675.85,Single-ply,SBD,M,
Boys,99.79,6,Noah Martinez #6,Edinburg,95.25,276.69,154.22,233.6,664.51,Single-ply,SBD,M,
Boys,99.79,7,Tony Gandaria,Donna North,97.79,265.35,170.1,226.8,662.24,Single-ply,SBD,M,
Boys,99.79,8,Ryan Cain,Victoria East,93.62,276.69,122.47,249.48,648.64,Single-ply,SBD,M,
Boys,99.79,9,Nico Herrera,Edcouch-Elsa,97.07,233.6,147.42,226.8,607.81,Single-ply,SBD,M,
Boys,99.79,10,Santos Avalos,Brownsville Hanna,98.16,247.21,140.61,206.38,594.21,Single-ply,SBD,M,
Boys,99.79,DQ,John Davila,Brownsville Hanna,91.53,,,,,Single-ply,SBD,M,
Boys,99.79,DQ,Cristian Hernandez #1,Mission,95.25,,,,,Single-ply,SBD,M,
Boys,99.79,DQ,Roli Gonzalez,Brownsville Hanna,97.7,247.21,151.95,,,Single-ply,SBD,M,
Boys,109.77,1,Fabian Martinez,Donna North,109.41,306.17,158.76,265.35,730.28,Single-ply,SBD,M,
Boys,109.77,2,Steven Pedraza,McAllen,109.13,278.96,179.17,269.89,728.02,Single-ply,SBD,M,
Boys,109.77,3,Oscar Sauceda,Brownsville Porter,105.69,274.42,156.49,249.48,680.39,Single-ply,SBD,M,
Boys,109.77,4,Justyn Esquivel,Edcouch-Elsa,107.59,249.48,188.24,235.87,673.58,Single-ply,SBD,M,
Boys,109.77,5,Jose Lopez,Roma,102.78,265.35,147.42,254.01,666.78,Single-ply,SBD,M,
Boys,109.77,6,Beto Garcia,Brownsville Hanna,106.87,256.28,161.03,249.48,666.78,Single-ply,SBD,M,
Boys,109.77,7,Erasmo Garces,Weslaco,107.5,249.48,156.49,242.67,648.64,Single-ply,SBD,M,
Boys,109.77,8,Christopher Casiano,Mission Veterans Memorial,109.13,251.74,165.56,226.8,644.1,Single-ply,SBD,M,
Boys,109.77,9,Josue Moralez,Weslaco East,106.96,240.4,170.1,229.06,639.57,Single-ply,SBD,M,
Boys,109.77,10,Noe Castillo,Weslaco East,108.41,235.87,183.7,208.65,628.23,Single-ply,SBD,M,
Boys,109.77,11,Noah Gonzalez,Harlingen,103.96,247.21,170.1,201.85,619.15,Single-ply,SBD,M,
Boys,109.77,DQ,Robert Ruiz,Brownsville Hanna,107.59,,,,,Single-ply,SBD,M,
Boys,124.74,1,Zeke Negrete,Weslaco East,123.38,283.5,204.12,272.16,759.77,Single-ply,SBD,M,
Boys,124.74,2,Isaac Alanis,Los Fresnos,123.56,290.3,183.7,249.48,723.48,Single-ply,SBD,M,
Boys,124.74,3,Alex Mendiola,McAllen Memorial,124.56,272.16,195.04,240.4,707.6,Single-ply,SBD,M,
Boys,124.74,4,Mark Lara,Gregory-Portland,120.38,256.28,167.83,240.4,664.51,Single-ply,SBD,M,
Boys,124.74,5,Michael Lam,McAllen Rowe,121.65,256.28,154.22,247.21,657.71,Single-ply,SBD,M,
Boys,124.74,6,Oscar de la Cruz,PSJA Southwest,122.92,242.67,158.76,219.99,621.42,Single-ply,SBD,M,
Boys,124.74,7,Justin Sandoval,Edcouch-Elsa,122.38,249.48,147.42,215.46,612.35,Single-ply,SBD,M,
Boys,124.74,8,Andrew Reyes,Weslaco,114.67,249.48,142.88,215.46,607.81,Single-ply,SBD,M,
Boys,124.74,9,Caleb Torres,Donna,116.66,244.94,117.93,226.8,589.67,Single-ply,SBD,M,
Boys,124.74,DQ,David De La Torre,Brownsville Pace,122.29,278.96,156.49,,,Single-ply,SBD,M,
Boys,124.74,DQ,Edgar Otero,Donna North,118.84,,,,,Single-ply,SBD,M,
Boys,124.74,DQ,Anthony Garcia,PSJA North,112.4,,,,,Single-ply,SBD,M,
Boys,139.71,1,Kevin Lopez,PSJA Memorial,138.44,317.51,192.78,249.48,759.77,Single-ply,SBD,M,
Boys,139.71,2,Caleb Davis,Harlingen South,139.71,290.3,181.44,240.4,712.14,Single-ply,SBD,M,
Boys,139.71,3,Manuel Garcia,Brownsville Porter,126.64,297.1,170.1,226.8,694,Single-ply,SBD,M,
Boys,139.71,4,Thomas Domian,McAllen Memorial,125.28,265.35,161.03,226.8,653.17,Single-ply,SBD,M,
Boys,139.71,5,Vicente Meza,Edinburg Vela,135.71,238.14,172.37,210.92,621.42,Single-ply,SBD,M,
Boys,139.71,6,Ray Hollowman,Brownsville Veterans Memorial,129.82,235.87,145.15,213.19,594.21,Single-ply,SBD,M,
Boys,139.71,DQ,Marco Gamez,Edinburg Vela,134.26,,,,,Single-ply,SBD,M,
Boys,139.71,DQ,Jayden Morales,Mission,137.26,,,,,Single-ply,SBD,M,
Boys,139.71,DQ,Dante Ramones,Edinburg North,129.73,263.08,163.29,,,Single-ply,SBD,M,
Boys,139.71,DQ,Victor Ramos,Brownsville Porter,129.36,226.8,154.22,,,Single-ply,SBD,M,
Boys,139.71,DQ,Anthony Huizar,Del Rio,135.35,294.84,,,,Single-ply,SBD,M,
Boys,139.71,DQ,Aaron Noriega,PSJA,128.28,,,,,Single-ply,SBD,M,
Boys,139.71,DQ,Roland Morales,Weslaco,125.74,,,,,Single-ply,SBD,M,
Boys,139.71+,1,Marcos De Ochoa,McAllen Memorial,142.43,317.51,170.1,272.16,759.77,Single-ply,SBD,M,
Boys,139.71+,2,Genaro Paez,Edinburg,156.31,288.03,179.17,254.01,721.21,Single-ply,SBD,M,
Boys,139.71+,3,German Woo,Brownsville Hanna,143.7,294.84,163.29,213.19,671.32,Single-ply,SBD,M,
Boys,139.71+,4,Eduardo De La Cerda,Donna,153.22,294.84,142.88,204.12,641.83,Single-ply,SBD,M,
Boys,139.71+,5,Isaias Garcia,La Joya Palmview,183.25,272.16,142.88,226.8,641.83,Single-ply,SBD,M,
Boys,139.71+,6,Fernando Gonzalez,San Benito,151.5,254.01,158.76,204.12,616.89,Single-ply,SBD,M,
Boys,139.71+,7,Ty Mattingly,Harlingen South,158.3,179.17,106.59,170.1,455.86,Single-ply,SBD,M,
Boys,139.71+,DQ,Dexter Delgado,Harlingen South,162.11,,,,,Single-ply,SBD,M,
Boys,139.71+,DQ,Pedro Posadas,Weslaco East,152.04,,,,,Single-ply,SBD,M,
Boys,139.71+,DQ,Jimmy Talamantes,McAllen Rowe,150.68,,,,,Single-ply,SBD,M,
Boys,139.71+,DQ,Jorge Rendon,PSJA,152.86,,,,,Single-ply,SBD,M,
Boys,139.71+,DQ,Juan Barrera,Edcouch-Elsa,160.12,,,,,Single-ply,SBD,M,
